lab2/simulation/qsim/lab2.msim.vcd
$comment
	File created using the following command:
		vcd file lab2.msim.vcd -direction
$end
$date
	Mon Feb 10 17:21:29 2020
$end
$version
	ModelSim Version 10.5b
$end
$timescale
	1ps
$end

$scope module random_vlg_vec_tst $end
$var reg 1 ! clk $end
$var reg 1 " reset_n $end
$var reg 1 # resume_n $end
$var wire 1 $ random [11] $end
$var wire 1 % random [10] $end
$var wire 1 & random [9] $end
$var wire 1 ' random [8] $end
$var wire 1 ( random [7] $end
$var wire 1 ) random [6] $end
$var wire 1 * random [5] $end
$var wire 1 + random [4] $end
$var wire 1 , random [3] $end
$var wire 1 - random [2] $end
$var wire 1 . random [1] $end
$var wire 1 / random [0] $end
$var wire 1 0 rnd_ready $end

$scope module i1 $end
$var wire 1 1 gnd $end
$var wire 1 2 vcc $end
$var wire 1 3 unknown $end
$var tri1 1 4 devclrn $end
$var tri1 1 5 devpor $end
$var tri1 1 6 devoe $end
$var wire 1 7 ~QUARTUS_CREATED_GND~I_combout $end
$var wire 1 8 clk~input_o $end
$var wire 1 9 clk~inputCLKENA0_outclk $end
$var wire 1 : resume_n~input_o $end
$var wire 1 ; reg_values[10]~feeder_combout $end
$var wire 1 < reset_n~input_o $end
$var wire 1 = reg_values[7]~feeder_combout $end
$var wire 1 > reg_values[0]~1_combout $end
$var wire 1 ? reg_values~0_combout $end
$var wire 1 @ reg_values[4]~2_combout $end
$var wire 1 A feedback~combout $end
$var wire 1 B random[0]~0_combout $end
$var wire 1 C random[0]~reg0_q $end
$var wire 1 D random[1]~1_combout $end
$var wire 1 E random[1]~reg0_q $end
$var wire 1 F random[2]~2_combout $end
$var wire 1 G random[2]~reg0_q $end
$var wire 1 H random[3]~reg0_q $end
$var wire 1 I random[4]~3_combout $end
$var wire 1 J random[4]~reg0_q $end
$var wire 1 K Add0~1_sumout $end
$var wire 1 L random[5]~reg0_q $end
$var wire 1 M Add0~2 $end
$var wire 1 N Add0~5_sumout $end
$var wire 1 O random[6]~reg0_q $end
$var wire 1 P Add0~6 $end
$var wire 1 Q Add0~9_sumout $end
$var wire 1 R random[7]~reg0_q $end
$var wire 1 S Add0~10 $end
$var wire 1 T Add0~13_sumout $end
$var wire 1 U random[8]~reg0_q $end
$var wire 1 V Add0~14 $end
$var wire 1 W Add0~17_sumout $end
$var wire 1 X random[9]~reg0_q $end
$var wire 1 Y Add0~18 $end
$var wire 1 Z Add0~21_sumout $end
$var wire 1 [ random[10]~reg0_q $end
$var wire 1 \ Add0~22 $end
$var wire 1 ] Add0~25_sumout $end
$var wire 1 ^ random[11]~reg0_q $end
$var wire 1 _ reg_values [11] $end
$var wire 1 ` reg_values [10] $end
$var wire 1 a reg_values [9] $end
$var wire 1 b reg_values [8] $end
$var wire 1 c reg_values [7] $end
$var wire 1 d reg_values [6] $end
$var wire 1 e reg_values [5] $end
$var wire 1 f reg_values [4] $end
$var wire 1 g reg_values [3] $end
$var wire 1 h reg_values [2] $end
$var wire 1 i reg_values [1] $end
$var wire 1 j reg_values [0] $end
$upscope $end
$upscope $end
$enddefinitions $end
#0
$dumpvars
0!
1"
1#
0/
0.
0-
0,
0+
0*
0)
0(
0'
0&
0%
0$
00
01
12
x3
14
15
16
07
08
09
1:
0;
1<
0=
1>
0?
1@
0A
1B
0C
1D
0E
1F
0G
0H
1I
0J
1K
0L
0M
0N
0O
1P
1Q
0R
1S
1T
0U
1V
1W
0X
1Y
1Z
0[
1\
0]
0^
0j
zi
0h
zg
0f
ze
0d
0c
0b
0a
0`
z_
$end
#2500000
1!
18
19
1f
1j
1[
1X
1U
1R
1L
1J
1G
1E
1.
1-
1+
1*
1(
1'
1&
1%
1M
1?
1]
0Z
0K
0>
1;
1N
0I
0@
#5000000
0!
08
09
#7500000
1!
18
19
0f
0j
1`
1^
0[
1O
0L
0J
1H
1,
0+
0*
1)
0%
1$
0M
0?
0W
1A
0]
1Z
1K
1>
0;
0N
1I
1@
#10000000
0!
08
09
#12500000
1!
18
19
1f
1j
1a
0`
0^
1[
0X
0O
1L
1J
0H
1C
1/
0,
1+
1*
0)
0&
1%
0$
1M
1?
1W
0A
0T
1]
0Z
0K
0>
1;
1N
0I
0@
#15000000
0!
08
09
#17500000
1!
18
19
0f
0j
1b
0a
1`
1^
0[
1X
0U
1O
0L
0J
1H
0C
0/
1,
0+
0*
1)
0'
1&
0%
1$
0M
0?
0W
1A
1T
0Q
1=
0]
1Z
1K
1>
0;
0N
1I
1@
#20000000
0!
08
09
#22500000
1!
18
19
1f
1j
1c
0b
1a
0`
0^
1[
0X
1U
0R
0O
1L
1J
0H
1C
1/
0,
1+
1*
0)
0(
1'
0&
1%
0$
0P
1M
1?
1W
0A
0T
1Q
0=
1N
1]
0Z
0K
0>
1;
1P
0Q
0N
0I
0@
1Q
#25000000
0!
08
09
#27500000
1!
18
19
0f
0j
1d
0c
1b
0a
1`
1^
0[
1X
0U
1R
0L
0J
1H
0C
0/
1,
0+
0*
1(
0'
1&
0%
1$
0M
0W
1A
1T
0Q
1=
1N
1K
0F
0D
0]
1Z
0;
0N
#30000000
0!
08
09
#32500000
1!
18
19
1h
0d
1c
0b
1a
0`
0^
1[
0X
1U
0R
1L
0G
0E
1C
1/
0.
0-
1*
0(
1'
0&
1%
0$
0P
0?
1W
0T
1Q
0=
1N
1F
1D
1>
0Q
1I
1@
#35000000
0!
08
09
#37500000
1!
18
19
0h
1f
1j
1d
0c
1b
0a
1X
0U
1O
1J
0H
1G
1E
1.
1-
0,
1+
1)
0'
1&
0S
1P
1T
1Q
1=
0N
0K
0F
0D
1]
0Z
0A
1;
1S
0T
0Q
1T
#40000000
0!
08
09
#42500000
1!
18
19
1h
0d
1c
0b
1`
1^
0[
1U
0O
0L
0G
0E
0C
0/
0.
0-
0*
0)
1'
0%
1$
0P
1M
1?
0W
1Q
0=
1N
1F
1D
0>
1P
0Q
0N
0I
0@
1Q
#45000000
0!
08
09
#47500000
1!
18
19
0h
0f
0j
1d
0c
1a
0X
1R
0J
1H
1G
1E
1.
1-
1,
0+
1(
0&
0M
0T
1N
1K
0F
0D
0]
1Z
1A
0;
0N
#50000000
0!
08
09
#52500000
1!
18
19
1h
0d
1b
0`
0^
1[
0U
1L
0G
0E
1C
1/
0.
0-
1*
0'
1%
0$
0?
1W
0Q
1=
1F
1D
1>
1I
1@
#55000000
0!
08
09
#57500000
1!
18
19
0h
1f
1j
1c
0a
1X
0R
1J
0H
1G
1E
1.
1-
0,
1+
0(
1&
0P
1M
1?
1T
1N
1]
0Z
0K
0A
0>
1;
0S
1P
1Q
0N
0I
0@
1S
0T
0Q
1T
#60000000
0!
08
09
#62500000
1!
18
19
0f
0j
1d
0b
1`
1^
0[
1U
0L
0J
1H
0C
0/
1,
0+
0*
1'
0%
1$
0M
0W
1A
1Q
0=
1K
0F
0D
0]
1Z
0;
0P
1N
0Q
#65000000
0!
08
09
#67500000
1!
18
19
1h
0c
1a
0`
0^
1[
0X
1O
1L
0G
0E
1C
1/
0.
0-
1*
1)
0&
1%
0$
1P
1W
0T
0N
1Q
#70000000
0!
08
09
#72500000
1!
18
19
0d
1b
0a
1X
0U
1R
0O
0)
1(
0'
1&
0?
1T
0Q
1=
1F
1D
1>
1I
1@
#75000000
0!
08
09
#77500000
1!
18
19
0h
1f
1j
1c
0b
1U
0R
1J
0H
1G
1E
1.
1-
0,
1+
0(
1'
0P
1M
1?
1Q
0=
1N
1]
0Z
0K
0A
0>
1;
1P
0Q
0N
0I
0@
1Q
#80000000
0!
08
09
#82500000
1!
18
19
0f
0j
1d
0c
1`
1^
0[
1R
0L
0J
1H
0C
0/
1,
0+
0*
1(
0%
1$
0M
0W
1A
1N
1K
0F
0D
0]
1Z
0;
0N
#85000000
0!
08
09
#87500000
1!
18
19
1h
0d
1a
0`
0^
1[
0X
1L
0G
0E
1C
1/
0.
0-
1*
0&
1%
0$
0?
1W
0T
1F
1D
1>
1I
1@
#90000000
0!
08
09
#92500000
1!
18
19
0h
1f
1j
1b
0a
1X
0U
1J
0H
1G
1E
1.
1-
0,
1+
0'
1&
1M
1?
1T
0Q
1=
1]
0Z
0K
0A
0>
1;
1N
0I
0@
#95000000
0!
08
09
#97500000
1!
18
19
0f
0j
1c
0b
1`
1^
0[
1U
0R
1O
0L
0J
1H
0C
0/
1,
0+
0*
1)
0(
1'
0%
1$
0M
0?
0W
1A
1Q
0=
0N
0]
1Z
1K
1>
0;
0P
1N
1I
1@
0Q
