2lab/simulation/qsim/lab2.msim.vcd
$comment
	File created using the following command:
		vcd file lab2.msim.vcd -direction
$end
$date
	Mon Feb 10 17:01:59 2020
$end
$version
	ModelSim Version 10.5b
$end
$timescale
	1ps
$end

$scope module random_vlg_vec_tst $end
$var reg 1 ! clk $end
$var reg 1 " reset_n $end
$var reg 1 # resume_n $end
$var wire 1 $ random [11] $end
$var wire 1 % random [10] $end
$var wire 1 & random [9] $end
$var wire 1 ' random [8] $end
$var wire 1 ( random [7] $end
$var wire 1 ) random [6] $end
$var wire 1 * random [5] $end
$var wire 1 + random [4] $end
$var wire 1 , random [3] $end
$var wire 1 - random [2] $end
$var wire 1 . random [1] $end
$var wire 1 / random [0] $end
$var wire 1 0 rnd_ready $end

$scope module i1 $end
$var wire 1 1 gnd $end
$var wire 1 2 vcc $end
$var wire 1 3 unknown $end
$var tri1 1 4 devclrn $end
$var tri1 1 5 devpor $end
$var tri1 1 6 devoe $end
$var wire 1 7 ~QUARTUS_CREATED_GND~I_combout $end
$var wire 1 8 clk~input_o $end
$var wire 1 9 clk~inputCLKENA0_outclk $end
$var wire 1 : resume_n~input_o $end
$var wire 1 ; reset_n~input_o $end
$var wire 1 < reg_values[6]~feeder_combout $end
$var wire 1 = reg_values[0]~1_combout $end
$var wire 1 > reg_values~0_combout $end
$var wire 1 ? reg_values[2]~feeder_combout $end
$var wire 1 @ feedback~combout $end
$var wire 1 A random[0]~0_combout $end
$var wire 1 B random[0]~reg0_q $end
$var wire 1 C random[1]~1_combout $end
$var wire 1 D random[1]~reg0_q $end
$var wire 1 E random[2]~2_combout $end
$var wire 1 F random[2]~reg0_q $end
$var wire 1 G random[3]~reg0_q $end
$var wire 1 H Add0~30_cout $end
$var wire 1 I Add0~1_sumout $end
$var wire 1 J random[5]~reg0_q $end
$var wire 1 K Add0~2 $end
$var wire 1 L Add0~5_sumout $end
$var wire 1 M random[6]~reg0_q $end
$var wire 1 N Add0~6 $end
$var wire 1 O Add0~9_sumout $end
$var wire 1 P random[7]~reg0_q $end
$var wire 1 Q Add0~10 $end
$var wire 1 R Add0~13_sumout $end
$var wire 1 S random[8]~reg0_q $end
$var wire 1 T Add0~14 $end
$var wire 1 U Add0~17_sumout $end
$var wire 1 V random[9]~reg0_q $end
$var wire 1 W Add0~18 $end
$var wire 1 X Add0~21_sumout $end
$var wire 1 Y random[10]~reg0_q $end
$var wire 1 Z Add0~22 $end
$var wire 1 [ Add0~25_sumout $end
$var wire 1 \ random[11]~reg0_q $end
$var wire 1 ] reg_values [11] $end
$var wire 1 ^ reg_values [10] $end
$var wire 1 _ reg_values [9] $end
$var wire 1 ` reg_values [8] $end
$var wire 1 a reg_values [7] $end
$var wire 1 b reg_values [6] $end
$var wire 1 c reg_values [5] $end
$var wire 1 d reg_values [4] $end
$var wire 1 e reg_values [3] $end
$var wire 1 f reg_values [2] $end
$var wire 1 g reg_values [1] $end
$var wire 1 h reg_values [0] $end
$upscope $end
$upscope $end
$enddefinitions $end
#0
$dumpvars
0!
1"
1#
0/
0.
0-
0,
0+
0*
0)
0(
0'
0&
0%
0$
00
01
12
x3
14
15
16
07
08
09
1:
1;
0<
1=
1>
0?
0@
1A
0B
1C
0D
1E
0F
0G
0H
0I
0J
1K
1L
0M
1N
1O
0P
1Q
1R
0S
1T
1U
0V
1W
0X
0Y
1Z
0[
0\
0h
zg
0f
ze
0d
zc
0b
0a
0`
0_
0^
z]
$end
#2500000
1!
18
19
1d
1h
1V
1S
1P
1M
1G
1F
1D
1.
1-
1,
1)
1(
1'
1&
0Z
1H
1[
1X
0>
0=
0[
1I
#5000000
0!
08
09
#7500000
1!
18
19
0d
0h
1^
1Y
1J
0G
0,
1*
1%
1Z
0H
0U
1@
1[
0X
1>
1=
0[
0I
#10000000
0!
08
09
#12500000
1!
18
19
1d
1h
1_
0^
0Y
0V
0J
1G
1B
1/
1,
0*
0&
0%
0Z
1H
1U
0@
0R
1[
1X
0>
0=
0[
1I
#15000000
0!
08
09
#17500000
1!
18
19
0d
0h
1`
0_
1^
1Y
1V
0S
1J
0G
0B
0/
0,
1*
0'
1&
1%
1Z
0H
0U
1@
1R
0O
1[
0X
1>
1=
0[
0I
#20000000
0!
08
09
#22500000
1!
18
19
1d
1h
1a
0`
1_
0^
0Y
0V
1S
0P
0J
1G
1B
1/
1,
0*
0(
1'
0&
0%
0Z
1H
1U
0@
0R
1O
0L
1<
1[
1X
0>
0=
0[
1I
#25000000
0!
08
09
#27500000
1!
18
19
0d
0h
1b
0a
1`
0_
1^
1Y
1V
0S
1P
0M
1J
0G
0B
0/
0,
1*
0)
1(
0'
1&
1%
1Z
0U
1@
1R
0O
1L
0<
0I
0E
0C
1?
1[
0X
0[
#30000000
0!
08
09
#32500000
1!
18
19
1f
0b
1a
0`
1_
0^
0Y
0V
1S
0P
1M
0J
0F
0D
1B
1/
0.
0-
0*
1)
0(
1'
0&
0%
0H
1U
0R
1O
0L
1<
1I
1E
1C
0?
1>
1=
0I
#35000000
0!
08
09
#37500000
1!
18
19
0f
1d
1h
1b
0a
1`
0_
1V
0S
1P
0M
1G
1F
1D
1.
1-
1,
0)
1(
0'
1&
0K
0Z
1R
0O
1L
0<
1I
0E
0C
1?
1[
1X
0@
0L
0[
#40000000
0!
08
09
#42500000
1!
18
19
1f
0b
1a
0`
1^
1Y
1S
0P
1J
0F
0D
0B
0/
0.
0-
1*
0(
1'
1%
0N
1K
1H
0U
1O
1L
1<
0I
1E
1C
0?
0>
0=
1N
0O
0L
1I
1O
#45000000
0!
08
09
#47500000
1!
18
19
0f
0d
0h
1b
0a
1_
0V
1P
0G
1F
1D
1.
1-
0,
1(
0&
1Z
0R
1L
0<
0I
0E
0C
1?
1[
0X
1@
0[
#50000000
0!
08
09
#52500000
1!
18
19
1f
0b
1`
0^
0Y
0S
1M
0J
0F
0D
1B
1/
0.
0-
0*
1)
0'
0%
0H
1U
0O
1I
1E
1C
0?
1>
1=
0I
#55000000
0!
08
09
#57500000
1!
18
19
0f
1d
1h
1a
0_
1V
0P
1G
1F
1D
1.
1-
1,
0(
1&
0Z
1H
1R
0L
1<
1[
1X
0@
0>
0=
0[
1I
#60000000
0!
08
09
#62500000
1!
18
19
0d
0h
1b
0`
1^
1Y
1S
0M
1J
0G
0B
0/
0,
1*
0)
1'
1%
1Z
0U
1@
1O
0I
0E
0C
1?
1[
0X
0[
#65000000
0!
08
09
#67500000
1!
18
19
1f
0a
1_
0^
0Y
0V
1P
0J
0F
0D
1B
1/
0.
0-
0*
1(
0&
0%
1U
0R
1L
0<
#70000000
0!
08
09
#72500000
1!
18
19
0b
1`
0_
1V
0S
1M
1)
0'
1&
0H
1R
0O
1I
1E
1C
0?
1>
1=
0I
#75000000
0!
08
09
#77500000
1!
18
19
0f
1d
1h
1a
0`
1S
0P
1G
1F
1D
1.
1-
1,
0(
1'
0Z
1H
1O
0L
1<
1[
1X
0@
0>
0=
0[
1I
#80000000
0!
08
09
#82500000
1!
18
19
0d
0h
1b
0a
1^
1Y
1P
0M
1J
0G
0B
0/
0,
1*
0)
1(
1%
1Z
0U
1@
1L
0<
0I
0E
0C
1?
1[
0X
0[
#85000000
0!
08
09
#87500000
1!
18
19
1f
0b
1_
0^
0Y
0V
1M
0J
0F
0D
1B
1/
0.
0-
0*
1)
0&
0%
0H
1U
0R
1I
1E
1C
0?
1>
1=
0I
#90000000
0!
08
09
#92500000
1!
18
19
0f
1d
1h
1`
0_
1V
0S
1G
1F
1D
1.
1-
1,
0'
1&
0Z
1H
1R
0O
1[
1X
0@
0>
0=
0[
1I
#95000000
0!
08
09
#97500000
1!
18
19
0d
0h
1a
0`
1^
1Y
1S
0P
1J
0G
0B
0/
0,
1*
0(
1'
1%
1Z
0H
0U
1@
1O
0L
1<
1[
0X
1>
1=
0[
0I
