2lab/simulation/qsim/lab2.msim.vcd
$comment
	File created using the following command:
		vcd file lab2.msim.vcd -direction
$end
$date
	Sun Feb 09 04:13:26 2020
$end
$version
	ModelSim Version 10.5b
$end
$timescale
	1ps
$end

$scope module lab2_vlg_vec_tst $end
$var reg 1 ! clk $end
$var reg 1 " reset_n $end
$var reg 1 # resume_n $end
$var wire 1 $ random [13] $end
$var wire 1 % random [12] $end
$var wire 1 & random [11] $end
$var wire 1 ' random [10] $end
$var wire 1 ( random [9] $end
$var wire 1 ) random [8] $end
$var wire 1 * random [7] $end
$var wire 1 + random [6] $end
$var wire 1 , random [5] $end
$var wire 1 - random [4] $end
$var wire 1 . random [3] $end
$var wire 1 / random [2] $end
$var wire 1 0 random [1] $end
$var wire 1 1 random [0] $end
$var wire 1 2 rnd_ready $end

$scope module i1 $end
$var wire 1 3 gnd $end
$var wire 1 4 vcc $end
$var wire 1 5 unknown $end
$var tri1 1 6 devclrn $end
$var tri1 1 7 devpor $end
$var tri1 1 8 devoe $end
$var wire 1 9 ~QUARTUS_CREATED_GND~I_combout $end
$var wire 1 : clk~input_o $end
$var wire 1 ; clk~inputCLKENA0_outclk $end
$var wire 1 < reg_values[0]~1_combout $end
$var wire 1 = reset_n~input_o $end
$var wire 1 > resume_n~input_o $end
$var wire 1 ? reg_values[11]~feeder_combout $end
$var wire 1 @ reg_values[10]~feeder_combout $end
$var wire 1 A reg_values[6]~feeder_combout $end
$var wire 1 B reg_values~0_combout $end
$var wire 1 C random[0]~0_combout $end
$var wire 1 D random[0]~reg0_q $end
$var wire 1 E random[1]~1_combout $end
$var wire 1 F random[1]~reg0_q $end
$var wire 1 G random[2]~2_combout $end
$var wire 1 H random[2]~reg0_q $end
$var wire 1 I random[3]~reg0_q $end
$var wire 1 J random[4]~reg0_q $end
$var wire 1 K random[5]~3_combout $end
$var wire 1 L random[5]~reg0_q $end
$var wire 1 M random[6]~4_combout $end
$var wire 1 N random[6]~reg0_q $end
$var wire 1 O random[7]~5_combout $end
$var wire 1 P random[7]~reg0_q $end
$var wire 1 Q random[8]~6_combout $end
$var wire 1 R random[8]~reg0_q $end
$var wire 1 S random[9]~7_combout $end
$var wire 1 T random[9]~reg0_q $end
$var wire 1 U random[10]~8_combout $end
$var wire 1 V random[10]~reg0_q $end
$var wire 1 W random[11]~9_combout $end
$var wire 1 X random[11]~reg0_q $end
$var wire 1 Y random[12]~10_combout $end
$var wire 1 Z random[12]~reg0_q $end
$var wire 1 [ random[13]~11_combout $end
$var wire 1 \ random[13]~reg0_q $end
$var wire 1 ] reg_values [13] $end
$var wire 1 ^ reg_values [12] $end
$var wire 1 _ reg_values [11] $end
$var wire 1 ` reg_values [10] $end
$var wire 1 a reg_values [9] $end
$var wire 1 b reg_values [8] $end
$var wire 1 c reg_values [7] $end
$var wire 1 d reg_values [6] $end
$var wire 1 e reg_values [5] $end
$var wire 1 f reg_values [4] $end
$var wire 1 g reg_values [3] $end
$var wire 1 h reg_values [2] $end
$var wire 1 i reg_values [1] $end
$var wire 1 j reg_values [0] $end
$upscope $end
$upscope $end
$enddefinitions $end
#0
$dumpvars
0!
1"
1#
01
00
0/
0.
0-
0,
0+
0*
0)
0(
0'
0&
0%
0$
02
03
14
x5
16
17
18
09
0:
0;
1<
1=
1>
0?
0@
0A
0B
1C
0D
1E
0F
1G
0H
0I
0J
1K
0L
1M
0N
1O
0P
1Q
0R
1S
0T
1U
0V
1W
0X
1Y
0Z
1[
0\
0j
zi
zh
zg
zf
ze
0d
0c
0b
0a
0`
0_
0^
z]
$end
#5000
1!
1:
1;
1j
1\
1Z
1X
1V
1T
1R
1P
1N
1L
1H
1F
10
1/
1,
1+
1*
1)
1(
1'
1&
1%
1$
0[
0Y
1B
0<
#10000
0!
0:
0;
#15000
1!
1:
1;
1^
0j
0\
0Z
1J
1I
1D
11
1.
1-
0%
0$
1[
1Y
0B
0W
1?
1<
#20000
0!
0:
0;
#25000
1!
1:
1;
1_
0^
1j
1\
1Z
0X
0J
0I
0D
01
0.
0-
0&
1%
1$
0[
0Y
1B
1W
0?
0U
1@
0<
#30000
0"
0!
0=
0:
0;
0C
0j
0_
1U
0@
1[
1Y
0B
1<
#35000
1!
1:
1;
#40000
1"
0!
1=
0:
0;
1C
#45000
1!
1:
1;
1j
1X
1&
0[
0Y
1B
0<
#50000
0!
0:
0;
#55000
1!
1:
1;
1^
0j
0\
0Z
1J
1I
1D
11
1.
1-
0%
0$
1[
1Y
0B
0W
1?
1<
#60000
0!
0:
0;
#65000
1!
1:
1;
1_
0^
1j
1\
1Z
0X
0J
0I
0D
01
0.
0-
0&
1%
1$
0[
0Y
1B
1W
0?
0U
1@
0<
#70000
0!
0:
0;
#75000
1!
1:
1;
1`
0_
1^
0j
0\
0Z
1X
0V
1J
1I
1D
11
1.
1-
0'
1&
0%
0$
1[
1Y
0B
0W
1?
1U
0@
0S
1<
#80000
0!
0:
0;
#85000
1!
1:
1;
1a
0`
1_
0^
1j
1\
1Z
0X
1V
0T
0J
0I
0D
01
0.
0-
0(
1'
0&
1%
1$
0[
0Y
1B
1W
0?
0U
1@
1S
0Q
0<
#90000
0!
0:
0;
#95000
1!
1:
1;
1b
0a
1`
0_
1^
0j
0\
0Z
1X
0V
1T
0R
1J
1I
1D
11
1.
1-
0)
1(
0'
1&
0%
0$
1[
1Y
0B
0W
1?
1U
0@
0S
1Q
0O
1<
#100000
0!
0:
0;
#105000
1!
1:
1;
1c
0b
1a
0`
1_
0^
1j
1\
1Z
0X
1V
0T
1R
0P
0J
0I
0D
01
0.
0-
0*
1)
0(
1'
0&
1%
1$
0[
0Y
1B
1W
0?
0U
1@
1S
0Q
1O
0M
1A
0<
#110000
0!
0:
0;
#115000
1!
1:
1;
1d
0c
1b
0a
1`
0_
1^
0j
0\
0Z
1X
0V
1T
0R
1P
0N
1J
1I
1D
11
1.
1-
0+
1*
0)
1(
0'
1&
0%
0$
1[
1Y
0W
1?
1U
0@
0S
1Q
0O
1M
0A
0K
0G
0E
#120000
0!
0:
0;
#125000
1!
1:
1;
0d
1c
0b
1a
0`
1_
0^
1\
1Z
0X
1V
0T
1R
0P
1N
0L
0H
0F
00
0/
0,
1+
0*
1)
0(
1'
0&
1%
1$
1W
0?
0U
1@
1S
0Q
1O
0M
1A
1K
1G
1E
0B
1<
#130000
0!
0:
0;
#135000
1!
1:
1;
1d
0c
1b
0a
1`
0_
1j
1X
0V
1T
0R
1P
0N
1L
0J
0I
1H
1F
0D
01
10
1/
0.
0-
1,
0+
1*
0)
1(
0'
1&
0[
0Y
1U
0@
0S
1Q
0O
1M
0A
0K
0G
0E
#140000
0!
0:
0;
#145000
1!
1:
1;
0d
1c
0b
1a
0`
1^
0\
0Z
1V
0T
1R
0P
1N
0L
0H
0F
00
0/
0,
1+
0*
1)
0(
1'
0%
0$
0W
1?
1S
0Q
1O
0M
1A
1K
1G
1E
1B
0<
#150000
0!
0:
0;
#155000
1!
1:
1;
1d
0c
1b
0a
1_
0j
0X
1T
0R
1P
0N
1L
1J
1I
1H
1F
1D
11
10
1/
1.
1-
1,
0+
1*
0)
1(
0&
1[
1Y
0U
1@
1Q
0O
1M
0A
0K
0G
0E
#160000
0!
0:
0;
#165000
1!
1:
1;
0d
1c
0b
1`
0^
1\
1Z
0V
1R
0P
1N
0L
0H
0F
00
0/
0,
1+
0*
1)
0'
1%
1$
1W
0?
0S
1O
0M
1A
1K
1G
1E
0B
1<
#170000
0!
0:
0;
#175000
1!
1:
1;
1d
0c
1a
0_
1j
1X
0T
1P
0N
1L
0J
0I
1H
1F
0D
01
10
1/
0.
0-
1,
0+
1*
0(
1&
0[
0Y
1U
0@
0Q
1M
0A
0K
0G
0E
#180000
0!
0:
0;
#185000
1!
1:
1;
0d
1b
0`
1^
0\
0Z
1V
0R
1N
0L
0H
0F
00
0/
0,
1+
0)
1'
0%
0$
0W
1?
1S
0O
1K
1G
1E
1B
0<
#190000
0!
0:
0;
#195000
1!
1:
1;
1c
0a
1_
0j
0X
1T
0P
1L
1J
1I
1H
1F
1D
11
10
1/
1.
1-
1,
0*
1(
0&
1[
1Y
0B
0U
1@
1Q
0M
1A
1<
