2lab/simulation/qsim/lab2.msim.vcd
$comment
	File created using the following command:
		vcd file lab2.msim.vcd -direction
$end
$date
	Mon Feb 10 16:38:57 2020
$end
$version
	ModelSim Version 10.5b
$end
$timescale
	1ps
$end

$scope module random_vlg_vec_tst $end
$var reg 1 ! clk $end
$var reg 1 " reset_n $end
$var reg 1 # resume_n $end
$var wire 1 $ random [13] $end
$var wire 1 % random [12] $end
$var wire 1 & random [11] $end
$var wire 1 ' random [10] $end
$var wire 1 ( random [9] $end
$var wire 1 ) random [8] $end
$var wire 1 * random [7] $end
$var wire 1 + random [6] $end
$var wire 1 , random [5] $end
$var wire 1 - random [4] $end
$var wire 1 . random [3] $end
$var wire 1 / random [2] $end
$var wire 1 0 random [1] $end
$var wire 1 1 random [0] $end
$var wire 1 2 rnd_ready $end

$scope module i1 $end
$var wire 1 3 gnd $end
$var wire 1 4 vcc $end
$var wire 1 5 unknown $end
$var tri1 1 6 devclrn $end
$var tri1 1 7 devpor $end
$var tri1 1 8 devoe $end
$var wire 1 9 clk~input_o $end
$var wire 1 : clk~inputCLKENA0_outclk $end
$var wire 1 ; reg_values[0]~0_combout $end
$var wire 1 < reset_n~input_o $end
$var wire 1 = resume_n~input_o $end
$var wire 1 > random~0_combout $end
$var wire 1 ? random[0]~reg0feeder_combout $end
$var wire 1 @ Mod0|auto_generated|divider|divider|op_6~62_cout $end
$var wire 1 A Mod0|auto_generated|divider|divider|op_6~5_sumout $end
$var wire 1 B Mod0|auto_generated|divider|divider|add_sub_12_result_int[0]~6 $end
$var wire 1 C Mod0|auto_generated|divider|divider|add_sub_12_result_int[0]~7 $end
$var wire 1 D Mod0|auto_generated|divider|divider|add_sub_12_result_int[1]~10 $end
$var wire 1 E Mod0|auto_generated|divider|divider|add_sub_12_result_int[1]~11 $end
$var wire 1 F Mod0|auto_generated|divider|divider|add_sub_12_result_int[2]~14 $end
$var wire 1 G Mod0|auto_generated|divider|divider|add_sub_12_result_int[2]~15 $end
$var wire 1 H Mod0|auto_generated|divider|divider|add_sub_12_result_int[3]~18 $end
$var wire 1 I Mod0|auto_generated|divider|divider|add_sub_12_result_int[3]~19 $end
$var wire 1 J Mod0|auto_generated|divider|divider|add_sub_12_result_int[4]~22 $end
$var wire 1 K Mod0|auto_generated|divider|divider|add_sub_12_result_int[4]~23 $end
$var wire 1 L Mod0|auto_generated|divider|divider|add_sub_12_result_int[5]~26 $end
$var wire 1 M Mod0|auto_generated|divider|divider|add_sub_12_result_int[5]~27 $end
$var wire 1 N Mod0|auto_generated|divider|divider|add_sub_12_result_int[6]~30 $end
$var wire 1 O Mod0|auto_generated|divider|divider|add_sub_12_result_int[6]~31 $end
$var wire 1 P Mod0|auto_generated|divider|divider|add_sub_12_result_int[7]~34 $end
$var wire 1 Q Mod0|auto_generated|divider|divider|add_sub_12_result_int[7]~35 $end
$var wire 1 R Mod0|auto_generated|divider|divider|add_sub_12_result_int[8]~38 $end
$var wire 1 S Mod0|auto_generated|divider|divider|add_sub_12_result_int[8]~39 $end
$var wire 1 T Mod0|auto_generated|divider|divider|add_sub_12_result_int[9]~42 $end
$var wire 1 U Mod0|auto_generated|divider|divider|add_sub_12_result_int[9]~43 $end
$var wire 1 V Mod0|auto_generated|divider|divider|add_sub_12_result_int[10]~46 $end
$var wire 1 W Mod0|auto_generated|divider|divider|add_sub_12_result_int[10]~47 $end
$var wire 1 X Mod0|auto_generated|divider|divider|add_sub_12_result_int[11]~50 $end
$var wire 1 Y Mod0|auto_generated|divider|divider|add_sub_12_result_int[11]~51 $end
$var wire 1 Z Mod0|auto_generated|divider|divider|add_sub_12_result_int[12]~53_sumout $end
$var wire 1 [ Mod0|auto_generated|divider|divider|add_sub_12_result_int[12]~54 $end
$var wire 1 \ Mod0|auto_generated|divider|divider|add_sub_12_result_int[12]~55 $end
$var wire 1 ] Mod0|auto_generated|divider|divider|add_sub_12_result_int[13]~1_sumout $end
$var wire 1 ^ Mod0|auto_generated|divider|divider|add_sub_12_result_int[11]~49_sumout $end
$var wire 1 _ Mod0|auto_generated|divider|divider|StageOut[179]~18_combout $end
$var wire 1 ` Mod0|auto_generated|divider|divider|StageOut[179]~19_combout $end
$var wire 1 a Mod0|auto_generated|divider|divider|add_sub_12_result_int[10]~45_sumout $end
$var wire 1 b Mod0|auto_generated|divider|divider|add_sub_12_result_int[9]~41_sumout $end
$var wire 1 c Mod0|auto_generated|divider|divider|StageOut[177]~14_combout $end
$var wire 1 d Mod0|auto_generated|divider|divider|StageOut[177]~15_combout $end
$var wire 1 e Mod0|auto_generated|divider|divider|add_sub_12_result_int[8]~37_sumout $end
$var wire 1 f Mod0|auto_generated|divider|divider|add_sub_12_result_int[7]~33_sumout $end
$var wire 1 g Mod0|auto_generated|divider|divider|StageOut[175]~10_combout $end
$var wire 1 h Mod0|auto_generated|divider|divider|StageOut[175]~11_combout $end
$var wire 1 i Mod0|auto_generated|divider|divider|add_sub_12_result_int[6]~29_sumout $end
$var wire 1 j Mod0|auto_generated|divider|divider|add_sub_12_result_int[5]~25_sumout $end
$var wire 1 k Mod0|auto_generated|divider|divider|StageOut[173]~6_combout $end
$var wire 1 l Mod0|auto_generated|divider|divider|StageOut[173]~7_combout $end
$var wire 1 m Mod0|auto_generated|divider|divider|add_sub_12_result_int[4]~21_sumout $end
$var wire 1 n Mod0|auto_generated|divider|divider|add_sub_12_result_int[3]~17_sumout $end
$var wire 1 o Mod0|auto_generated|divider|divider|add_sub_12_result_int[2]~13_sumout $end
$var wire 1 p Mod0|auto_generated|divider|divider|add_sub_12_result_int[1]~9_sumout $end
$var wire 1 q Mod0|auto_generated|divider|divider|add_sub_12_result_int[0]~5_sumout $end
$var wire 1 r Mod0|auto_generated|divider|divider|op_6~6 $end
$var wire 1 s Mod0|auto_generated|divider|divider|op_6~10 $end
$var wire 1 t Mod0|auto_generated|divider|divider|op_6~14 $end
$var wire 1 u Mod0|auto_generated|divider|divider|op_6~18 $end
$var wire 1 v Mod0|auto_generated|divider|divider|op_6~22 $end
$var wire 1 w Mod0|auto_generated|divider|divider|op_6~26 $end
$var wire 1 x Mod0|auto_generated|divider|divider|op_6~30 $end
$var wire 1 y Mod0|auto_generated|divider|divider|op_6~34 $end
$var wire 1 z Mod0|auto_generated|divider|divider|op_6~38 $end
$var wire 1 { Mod0|auto_generated|divider|divider|op_6~42 $end
$var wire 1 | Mod0|auto_generated|divider|divider|op_6~46 $end
$var wire 1 } Mod0|auto_generated|divider|divider|op_6~50 $end
$var wire 1 ~ Mod0|auto_generated|divider|divider|op_6~54 $end
$var wire 1 !! Mod0|auto_generated|divider|divider|op_6~58_cout $end
$var wire 1 "! Mod0|auto_generated|divider|divider|op_6~1_sumout $end
$var wire 1 #! Mod0|auto_generated|divider|divider|StageOut[182]~0_combout $end
$var wire 1 $! Add0~38_cout $end
$var wire 1 %! Add0~30 $end
$var wire 1 &! Add0~34 $end
$var wire 1 '! Add0~22 $end
$var wire 1 (! Add0~26 $end
$var wire 1 )! Add0~18 $end
$var wire 1 *! Add0~9_sumout $end
$var wire 1 +! Add0~17_sumout $end
$var wire 1 ,! Add0~25_sumout $end
$var wire 1 -! Add0~33_sumout $end
$var wire 1 .! Add0~29_sumout $end
$var wire 1 /! Add0~21_sumout $end
$var wire 1 0! LessThan0~0_combout $end
$var wire 1 1! Add0~10 $end
$var wire 1 2! Add0~13_sumout $end
$var wire 1 3! Add0~14 $end
$var wire 1 4! Add0~6 $end
$var wire 1 5! Add0~1_sumout $end
$var wire 1 6! Add0~5_sumout $end
$var wire 1 7! LessThan0~1_combout $end
$var wire 1 8! random[0]~1_combout $end
$var wire 1 9! random[0]~reg0_q $end
$var wire 1 :! reg_values[6]~_wirecell_combout $end
$var wire 1 ;! random[1]~reg0feeder_combout $end
$var wire 1 <! Mod0|auto_generated|divider|divider|op_6~9_sumout $end
$var wire 1 =! Mod0|auto_generated|divider|divider|StageOut[183]~1_combout $end
$var wire 1 >! random[1]~reg0_q $end
$var wire 1 ?! Mod0|auto_generated|divider|divider|op_6~13_sumout $end
$var wire 1 @! Mod0|auto_generated|divider|divider|StageOut[184]~2_combout $end
$var wire 1 A! random[2]~reg0_q $end
$var wire 1 B! random~0_wirecell_combout $end
$var wire 1 C! Mod0|auto_generated|divider|divider|op_6~17_sumout $end
$var wire 1 D! Mod0|auto_generated|divider|divider|StageOut[185]~3_combout $end
$var wire 1 E! random[3]~reg0_q $end
$var wire 1 F! ~GND~combout $end
$var wire 1 G! random[4]~reg0feeder_combout $end
$var wire 1 H! Mod0|auto_generated|divider|divider|op_6~21_sumout $end
$var wire 1 I! Mod0|auto_generated|divider|divider|StageOut[186]~4_combout $end
$var wire 1 J! random[4]~reg0_q $end
$var wire 1 K! Mod0|auto_generated|divider|divider|op_6~25_sumout $end
$var wire 1 L! Mod0|auto_generated|divider|divider|StageOut[187]~5_combout $end
$var wire 1 M! random[5]~reg0_q $end
$var wire 1 N! Mod0|auto_generated|divider|divider|op_6~29_sumout $end
$var wire 1 O! Mod0|auto_generated|divider|divider|StageOut[188]~8_combout $end
$var wire 1 P! random[6]~reg0_q $end
$var wire 1 Q! Mod0|auto_generated|divider|divider|op_6~33_sumout $end
$var wire 1 R! Mod0|auto_generated|divider|divider|StageOut[189]~9_combout $end
$var wire 1 S! random[7]~reg0_q $end
$var wire 1 T! Mod0|auto_generated|divider|divider|op_6~37_sumout $end
$var wire 1 U! Mod0|auto_generated|divider|divider|StageOut[190]~12_combout $end
$var wire 1 V! random[8]~reg0_q $end
$var wire 1 W! Mod0|auto_generated|divider|divider|op_6~41_sumout $end
$var wire 1 X! Mod0|auto_generated|divider|divider|StageOut[191]~13_combout $end
$var wire 1 Y! random[9]~reg0_q $end
$var wire 1 Z! Mod0|auto_generated|divider|divider|op_6~45_sumout $end
$var wire 1 [! Mod0|auto_generated|divider|divider|StageOut[192]~16_combout $end
$var wire 1 \! random[10]~reg0_q $end
$var wire 1 ]! Mod0|auto_generated|divider|divider|op_6~49_sumout $end
$var wire 1 ^! Mod0|auto_generated|divider|divider|StageOut[193]~17_combout $end
$var wire 1 _! random[11]~reg0_q $end
$var wire 1 `! Mod0|auto_generated|divider|divider|op_6~53_sumout $end
$var wire 1 a! Mod0|auto_generated|divider|divider|StageOut[194]~20_combout $end
$var wire 1 b! random[12]~reg0_q $end
$var wire 1 c! reg_values [13] $end
$var wire 1 d! reg_values [12] $end
$var wire 1 e! reg_values [11] $end
$var wire 1 f! reg_values [10] $end
$var wire 1 g! reg_values [9] $end
$var wire 1 h! reg_values [8] $end
$var wire 1 i! reg_values [7] $end
$var wire 1 j! reg_values [6] $end
$var wire 1 k! reg_values [5] $end
$var wire 1 l! reg_values [4] $end
$var wire 1 m! reg_values [3] $end
$var wire 1 n! reg_values [2] $end
$var wire 1 o! reg_values [1] $end
$var wire 1 p! reg_values [0] $end
$upscope $end
$upscope $end
$enddefinitions $end
#0
$dumpvars
0!
1"
1#
01
00
0/
0.
0-
0,
0+
0*
0)
0(
0'
0&
0%
0$
02
03
14
x5
16
17
18
09
0:
1;
1<
1=
0>
0?
1@
0A
0B
1C
0D
1E
1F
0G
0H
0I
0J
1K
0L
1M
0N
1O
1P
0Q
1R
0S
1T
0U
0V
1W
0X
1Y
0Z
1[
0\
0]
1^
1_
0`
1a
0b
0c
0d
0e
0f
0g
0h
1i
1j
1k
0l
0m
1n
0o
1p
1q
1r
1s
1t
0u
1v
1w
1x
1y
0z
0{
0|
1}
1~
1!!
0"!
0#!
0$!
1%!
1&!
1'!
1(!
1)!
0*!
1+!
1,!
1-!
0.!
1/!
10!
11!
02!
13!
14!
05!
06!
07!
18!
09!
1:!
1;!
1<!
1=!
0>!
1?!
1@!
0A!
1B!
1C!
1D!
0E!
0F!
0G!
0H!
0I!
0J!
0K!
0L!
0M!
1N!
1O!
0P!
0Q!
0R!
0S!
1T!
1U!
0V!
0W!
0X!
0Y!
1Z!
1[!
0\!
0]!
0^!
0_!
0`!
0a!
0b!
0p!
zo!
zn!
zm!
zl!
zk!
0j!
0i!
0h!
0g!
0f!
0e!
0d!
zc!
$end
#5000
1!
19
1:
1p!
1Y!
1V!
1S!
1P!
1E!
1A!
1>!
10
1/
1.
1+
1*
1)
1(
15!
04!
1$!
0[
1Z
1X
0^
0Y
1H
0n
0F
1o
1G
1A
1>
16!
05!
1]
1m
1#!
0;
1u
0C!
0v
1H!
0_
17!
1.!
0B!
1?
1v
0~
1`!
1I!
0D!
1W!
1l
0k
1h
1d
1K!
0!!
1|
0Z!
1z
0T!
1X!
1a!
1"!
1]!
1{
0W!
0U!
0[!
1L!
1Z!
1^!
0a!
1[!
1U!
1R!
1D!
#10000
0!
09
0:
#15000
1!
19
1:
1d!
0p!
1_!
1\!
1M!
1J!
19!
11
1-
1,
1'
1&
15!
14!
0$!
1!!
0H!
0u
1C!
1`
1[
0Z
0X
1^
1Y
0H
1n
1F
0o
0G
0A
0>
0^!
03!
0]!
1V
0a
0W
06!
12!
05!
0"!
0v
1H!
0]
0m
04!
0I!
0D!
0#!
1;
1a!
1~
0`!
0.!
16!
1B!
0?
0w
15!
0a!
0X!
0R!
1I!
1D!
0{
1W!
1v
0H!
0l
1k
0h
0d
0`
1_
0U!
0N!
0|
1w
0K!
0z
1T!
0I!
1X!
0}
1]!
1N!
0W!
1U!
0L!
0O!
0~
1`!
0X!
1O!
1^!
0!!
1a!
1"!
0^!
0[!
0U!
1R!
1I!
0D!
#20000
0!
09
0:
#25000
1!
19
1:
1e!
0d!
1p!
1b!
0_!
0\!
0Y!
0V!
0M!
0E!
09!
01
0.
0,
0)
0(
0'
0&
1%
05!
1$!
0[
1Z
1X
0^
0Y
1H
0n
0F
1o
1G
1A
1>
13!
0V
1a
1W
01!
0T
1b
06!
02!
1*!
1]
1m
03!
0a
1c
1^!
1}
0]!
0I!
1D!
1#!
0;
1u
0C!
0v
1H!
0_
1!!
07!
1.!
16!
12!
0B!
1?
1v
0"!
0a!
1I!
1[!
1|
0Z!
1L!
1X!
0!!
1W!
1l
0k
1h
0c
17!
06!
1K!
1]!
1"!
0[!
0|
1Z!
1U!
1z
0T!
1a!
0^!
0R!
0L!
0D!
07!
0]!
1{
0W!
0a!
1^!
1R!
1L!
1D!
1|
0Z!
1]!
#30000
0!
09
0:
#35000
1!
19
1:
1f!
0e!
1d!
0p!
0b!
1_!
1\!
1Y!
1V!
1M!
0J!
19!
11
0-
1,
1)
1(
1'
1&
0%
15!
0$!
1!!
0H!
0u
1C!
1`
1[
0Z
0X
1^
1Y
0H
1n
1F
0o
0G
0A
0>
0^!
0]!
1a
0W
11!
1d
1T
0b
0X!
0{
1W!
0R
1e
16!
02!
0*!
0+!
0"!
0v
1H!
0]
0m
0^
1V
0a
0T
1b
1[!
0I!
0D!
0#!
1;
1a!
1~
0`!
17!
0.!
12!
1B!
0?
0w
1^
0V
1a
0a!
1c
1X!
0R!
1I!
1D!
1{
0W!
1v
0H!
0l
1k
0h
0d
0`
0[!
0U!
0N!
0^
1Z!
1w
0K!
0~
1`!
0z
1T!
0I!
0X!
1]!
1_
1N!
0!!
0{
1W!
1a!
1~
0`!
1^!
1U!
0L!
1[!
0_
0O!
1"!
0Z!
1!!
0a!
0~
1`!
1X!
1O!
0"!
0!!
0U!
1R!
1I!
0D!
1"!
1a!
0[!
1U!
0R!
0I!
1D!
0a!
1[!
0U!
1R!
1I!
0D!
#40000
0!
09
0:
#45000
1!
19
1:
1g!
0f!
1e!
0d!
1p!
0V!
0M!
1J!
09!
01
1-
0,
0)
05!
1$!
0[
1Z
1^
0Y
1H
0n
0F
1o
1G
1A
1>
13!
0a
1W
01!
0b
1R
0e
0P
1f
06!
02!
1*!
1+!
0,!
1]
0Z
1m
1X
0^
03!
1b
0R
1e
1g
0X!
0W!
0c
0^!
0]!
0I!
1D!
1#!
0;
1u
0C!
0v
1H!
1_
1!!
07!
00!
1.!
16!
12!
0B!
1?
1Z
0b
1v
0"!
17!
1a!
1~
0`!
1I!
1^!
0[!
0|
1Z!
1X!
1U!
1z
0T!
1W!
0_
1L!
0!!
1]!
1l
0k
0g
06!
1K!
1!!
0]!
1{
0W!
1"!
0U!
0z
1T!
0a!
0~
1`!
1[!
0R!
0L!
0D!
07!
0"!
1|
0Z!
0{
1W!
0!!
0[!
1R!
1L!
1D!
1]!
0|
1Z!
1"!
1a!
0^!
1U!
0R!
0D!
0]!
0a!
1^!
0U!
1R!
1D!
#50000
0!
09
0:
#55000
1!
19
1:
1h!
0g!
1f!
0e!
1d!
0p!
1M!
0J!
19!
11
0-
1,
15!
0$!
1!!
0H!
0u
1C!
1`
1[
0Z
0X
1^
1Y
0H
1n
1F
0o
0G
0A
0>
0^!
0}
1]!
1a
0W
11!
1d
1b
0X!
0W!
0e
1h
1P
0f
0R!
0y
1Q!
1N
0i
0O
16!
02!
0*!
0+!
1,!
0/!
0"!
0v
1H!
0]
0m
0^
1e
1U!
1[!
1|
0Z!
0I!
0D!
0#!
1;
1a!
17!
0.!
12!
1B!
0?
0w
1}
0[!
1W!
1^!
1R!
1I!
1D!
0!!
1v
0H!
0l
1k
0h
0d
1c
0`
0N!
1"!
1w
0K!
0T!
0I!
1X!
1N!
0U!
0L!
0a!
1[!
0R!
1I!
0D!
#60000
0!
09
0:
#65000
1!
19
1:
1i!
0h!
1g!
0f!
1e!
0d!
1p!
0S!
0M!
1J!
09!
01
1-
0,
0*
05!
1$!
0[
1Z
1^
0Y
1H
0n
0F
1o
1G
1A
1>
13!
0a
1W
01!
0b
1R
0e
0P
1f
0N
1i
1O
1L
0j
0M
06!
02!
1*!
1+!
0,!
1/!
0-!
1]
0Z
1m
1X
0^
03!
1b
0R
1e
0k
1R!
1y
0Q!
1g
0X!
0W!
0c
0^!
0]!
0I!
1D!
1#!
0;
1u
0C!
0v
1H!
1_
1!!
07!
1.!
16!
12!
0B!
1?
1Z
0b
1z
1v
0"!
1a!
1~
0`!
1I!
1^!
0[!
0|
1Z!
1X!
1U!
0O!
0N!
1W!
0_
1L!
0!!
1]!
0g
17!
06!
1{
0W!
1K!
1!!
0]!
1"!
0U!
0z
1T!
0a!
0~
1`!
1[!
0R!
0L!
0D!
07!
1|
0Z!
0"!
0{
1W!
0!!
0[!
1R!
1L!
1D!
1]!
0|
1Z!
1"!
1a!
0^!
1U!
0R!
0D!
0]!
0a!
1^!
0U!
1R!
1D!
#70000
0!
09
0:
#75000
1!
19
1:
1j!
0i!
1h!
0g!
1f!
0e!
1d!
0p!
1S!
0P!
1M!
0J!
19!
11
0-
1,
0+
1*
15!
1!!
1`
1[
0Z
0X
1^
1Y
0^!
0}
1]!
1a
0W
11!
1d
1b
0X!
0W!
0e
1h
1P
0f
0R!
0y
1Q!
1N
0i
0O
1l
0L
1j
1M
0L!
0@!
0=!
0K!
0?!
0<!
1J
0m
0K
1D
0p
0E
0q
16!
02!
0*!
0+!
1,!
0/!
1-!
0:!
0.!
0"!
0]
0^
1e
1O!
1N!
1U!
1[!
1|
0Z!
1a!
17!
12!
0;!
1}
0[!
1W!
1^!
1R!
0D!
0!!
0H!
0l
1k
0h
0d
1c
0`
1"!
0T!
0I!
1X!
0U!
0a!
1[!
0R!
1D!
#80000
0!
09
0:
#85000
1!
19
1:
0j!
1i!
0h!
1g!
0f!
1e!
0d!
0S!
1P!
0M!
1E!
0A!
0>!
00
0/
1.
0,
1+
0*
13!
0a
1W
01!
0b
1R
0e
0P
1f
0N
1i
1O
1L
0j
0M
0$!
0J
1m
1K
0H
1n
1F
0o
0G
0D
1p
1E
1q
0A
0>
02!
1*!
1+!
0,!
1/!
0-!
1:!
1.!
14!
1^
03!
1b
0R
1e
0m
1I!
0D!
0#!
1;
1=!
1<!
1@!
1?!
0u
1C!
1H!
1L!
1K!
0k
1R!
1y
0Q!
1g
0X!
0W!
0c
0^!
0]!
06!
12!
0.!
1B!
0?
1;!
05!
04!
0b
0H!
1z
0[!
0|
1Z!
1X!
1U!
0O!
0N!
0L!
0K!
1W!
1c
1_
16!
15!
1{
0W!
0}
1]!
1a!
1~
0`!
1[!
1|
0Z!
0c
0~
1`!
1!!
1}
0]!
0[!
0!!
0"!
1~
0`!
1"!
1!!
0a!
0X!
0U!
0R!
0I!
1D!
0"!
1a!
1X!
1U!
1R!
1I!
0D!
0a!
0X!
0U!
0R!
0I!
1D!
#90000
0!
09
0:
#95000
1!
19
1:
1j!
0i!
1h!
0g!
1f!
0e!
1p!
0_!
0\!
0Y!
0P!
1A!
1>!
09!
01
10
1/
0+
0(
0'
0&
05!
0[
1Z
1X
0^
0Y
11!
1b
0e
1P
0f
1N
0i
0O
0L
1j
1M
0%!
1m
0K
1D
0p
0E
0q
06!
0*!
0+!
1,!
0/!
1-!
0:!
1.!
1]
13!
1e
0j
0<!
0?!
1K!
1k
0y
1Q!
0g
0{
1W!
1c
0_
07!
02!
0-!
0;!
0z
0~
1`!
1X!
1R!
1N!
1L!
0@!
0=!
0k
1]!
0K!
0v
1H!
1l
1h
1d
0c
16!
0W!
0!!
0w
1K!
1T!
1O!
1I!
0L!
1^!
1a!
1"!
0N!
1U!
1L!
0X!
0a!
1[!
0R!
0L!
0I!
0D!
#100000
0!
09
0:
#105000
1!
19
1:
0j!
1i!
0h!
1g!
0f!
1d!
1b!
1V!
1M!
0A!
0>!
00
0/
1,
1)
1%
0^!
03!
0]!
1a
0W
1X!
1W!
1R
0e
0h
0P
1f
1R!
1y
0Q!
0N
1i
1O
0&!
0l
1j
0M
1L!
1@!
1=!
1%!
1$!
1w
0K!
1v
0H!
1u
0C!
1?!
1<!
0m
1K
1H
0n
0F
1o
1G
0D
1p
1E
1q
1A
1>
12!
1+!
0,!
1/!
1-!
1:!
0.!
0X
1^
1T
0b
0R
1e
0i
1&!
1K!
1H!
1L
0j
1m
1I!
1D!
1#!
0;
0O!
0U!
17!
06!
0/!
0-!
1.!
0B!
1?
1;!
0Z
1V
0a
0T
1b
1i
07!
1/!
1X
0^
0V
1a
1Z
0X
1^
0Z
#110000
0!
09
0:
#115000
1!
19
1:
1j!
0i!
1h!
0g!
1e!
0p!
0b!
1_!
1Y!
0V!
1S!
0E!
1A!
1>!
19!
11
10
1/
0.
1*
0)
1(
1&
0%
15!
1!!
1`
1Z
0^
1Y
01!
0d
0b
1h
1P
0f
0R!
0y
1Q!
1N
0i
0O
1l
0L
1j
1M
0L!
0@!
0=!
0K!
0?!
0<!
1J
0m
0K
1D
0p
0E
0q
16!
1*!
1,!
0/!
1-!
0:!
0.!
0"!
1[
0Z
1R
0e
1O!
1N!
1U!
0[!
0|
1Z!
1a!
1~
0`!
17!
02!
0;!
0]
1b
0}
1]!
0a!
1[!
1R!
0D!
0~
1`!
1^!
1c
1}
0]!
0W!
0H!
0l
1k
0h
0`
0!!
1a!
0T!
0I!
0X!
0^!
1|
0Z!
1"!
1]!
0[!
0U!
1^!
0a!
1[!
0R!
1D!
#120000
0!
09
0:
#125000
1!
19
1:
0j!
1i!
0h!
1f!
0d!
1\!
0Y!
0S!
1P!
0M!
1E!
0A!
0>!
00
0/
1.
0,
1+
0*
0(
1'
0a
1W
0R
1e
0N
1i
1O
1L
0j
0M
0$!
0J
1m
1K
0H
1n
1F
0o
0G
0D
1p
1E
1q
0A
0>
12!
0+!
1/!
0-!
1:!
1.!
1^
0b
0m
1I!
0D!
0#!
1;
1=!
1<!
1@!
1?!
0u
1C!
1H!
1L!
1K!
0k
1R!
1y
0Q!
1X!
1W!
0^!
0]!
10!
0.!
1B!
0?
1;!
0H!
1T!
0O!
0N!
0L!
0K!
0c
1_
1a!
1~
0`!
0[!
0|
1Z!
1!!
0}
1]!
0"!
0~
1`!
0!!
1^!
1[!
1U!
0R!
0I!
1D!
1"!
0^!
0[!
0U!
1R!
1I!
0D!
#130000
0!
09
0:
#135000
1!
19
1:
1j!
0i!
1g!
0e!
1p!
1b!
0_!
0\!
1Y!
1S!
0P!
1J!
0E!
1A!
1>!
09!
01
10
1/
0.
1-
0+
1*
1(
0'
0&
1%
05!
00!
0[
1Z
1X
0^
0Y
11!
1b
0P
1f
0L
1j
1M
0%!
1m
0K
1D
0p
0E
0q
06!
0*!
0,!
1-!
0:!
1.!
1]
13!
0e
0j
0=!
0<!
0@!
0?!
1L!
1K!
1k
1g
1c
0_
1!!
07!
02!
0-!
0;!
0"!
0a!
0`!
1[!
1|
0Z!
1U!
1z
0T!
1O!
1N!
0L!
0k
0X!
0W!
1^!
0I!
0!!
1}
0]!
0K!
0v
1H!
1l
0g
1d
0c
16!
1]!
1W!
1"!
1`!
0w
1K!
0[!
0U!
0z
1T!
1I!
0^!
0R!
1D!
0N!
0W!
1^!
1[!
1R!
0I!
0D!
#140000
0!
09
0:
#145000
1!
19
1:
0j!
1h!
0f!
1d!
0Y!
1M!
0J!
1E!
0A!
0>!
00
0/
1.
0-
1,
0(
0^!
03!
0]!
1a
0W
1X!
1W!
1e
0R!
0y
1Q!
1N
0i
0O
1L!
1@!
1=!
1%!
1$!
1w
0K!
1v
0H!
1u
0C!
1?!
1<!
0m
1K
1H
0n
0F
1o
1G
0D
1p
1E
1q
1A
1>
12!
1+!
0/!
1:!
0.!
0X
1^
0T!
1N!
1K!
1H!
1j
1m
1I!
1D!
1#!
0;
17!
06!
1-!
1.!
0B!
1?
1;!
0Z
07!
#150000
0!
09
0:
#155000
1!
19
1:
1i!
0g!
1e!
0p!
0b!
1_!
1Y!
0S!
1P!
0E!
1A!
1>!
19!
11
10
1/
0.
1+
0*
1(
1&
0%
15!
0$!
1!!
0H!
0u
1C!
1`
1Z
0^
1Y
0H
1n
1F
0o
0G
0A
0>
01!
0d
0b
1h
1P
0f
0l
1L
0j
0M
16!
1*!
1,!
0-!
0"!
0v
1H!
1[
0Z
0m
1R
0e
0O!
0N!
1U!
1T!
0[!
0|
1Z!
0I!
0D!
0#!
1;
1a!
1~
0`!
17!
0.!
02!
1B!
0?
0K!
0]
1b
0}
1]!
0a!
1[!
1I!
1R!
1D!
0~
1`!
1^!
1c
0L!
1}
0]!
0W!
0w
1K!
1v
0H!
0h
0`
0!!
0x
1N!
1w
0K!
1a!
0T!
0I!
1L!
0X!
0^!
1|
0Z!
1"!
0Q!
1x
0N!
1]!
0[!
0U!
0L!
1O!
1Q!
1^!
0O!
0R!
0a!
1[!
1I!
0D!
#160000
0!
09
0:
#165000
1!
19
1:
1j!
0h!
1f!
0d!
1p!
1\!
0Y!
0P!
0M!
1J!
09!
01
1-
0,
0+
0(
1'
05!
0[
1Z
1^
0Y
0a
1W
0R
1e
0N
1i
1O
0%!
1m
0K
1D
0p
0E
0q
06!
12!
0+!
1/!
0:!
1.!
1]
0Z
1X
0^
0b
0&!
0L
1j
0=!
0<!
0@!
0?!
1L!
1K!
1R!
1y
0Q!
1X!
1W!
0^!
0]!
1_
1!!
07!
10!
1-!
0;!
1Z
0i
1T!
0"!
1a!
1~
0`!
1^!
0X!
0L!
0c
0_
0!!
0I!
1]!
0W!
0K!
0v
1H!
1h
0/!
1!!
1"!
0w
1K!
1U!
1z
0T!
1I!
0a!
0~
1`!
0[!
0|
1Z!
0R!
1D!
00!
0"!
0x
1N!
1W!
0!!
0]!
1R!
0I!
0D!
0y
1Q!
1"!
0^!
1X!
1O!
1a!
1[!
0U!
0R!
1L!
1I!
1D!
0z
1T!
0a!
1^!
0[!
0X!
1U!
1R!
0O!
0L!
0I!
0D!
0W!
#170000
0!
09
0:
#175000
1!
19
1:
0i!
1g!
0e!
1d!
1V!
1P!
1M!
0J!
1E!
0A!
0>!
00
0/
1.
0-
1,
1+
1)
0^!
0}
1]!
1a
0W
11!
1d
1b
0h
0P
1f
1&!
1l
0j
1M
02!
0*!
0,!
0-!
0`!
0X
1^
0e
1i
1O!
1x
0N!
0U!
0T!
1[!
1|
0Z!
12!
1/!
0Z
1y
0Q!
1}
0]!
1T!
1`!
#180000
0!
09
0:
#185000
1!
19
1:
0j!
1h!
0f!
1e!
0\!
0V!
1S!
0P!
0+
1*
0)
0'
01!
0d
0b
1X!
1W!
1e
0R!
0y
1Q!
1N
0i
0O
1L!
1@!
1=!
1%!
1$!
1w
0K!
1v
0H!
1u
0C!
1?!
1<!
0m
1K
1H
0n
0F
1o
1G
0D
1p
1E
1q
1A
1>
1*!
1+!
0/!
1:!
0.!
0T!
1N!
1K!
1H!
1j
1m
1I!
1D!
1#!
0;
0[!
0|
1Z!
02!
1-!
1.!
0B!
1?
1;!
0}
1]!
0`!
#190000
0!
09
0:
#195000
1!
19
1:
1i!
0g!
1f!
0p!
0_!
1\!
1Y!
0S!
1P!
0E!
1A!
1>!
19!
11
10
1/
0.
1+
0*
1(
1'
0&
15!
0$!
1!!
0H!
0u
1C!
1`
1Z
0^
1Y
0H
1n
1F
0o
0G
0A
0>
0X!
0W!
0e
1h
1P
0f
0l
1L
0j
0M
16!
0+!
1,!
0-!
0"!
0v
1H!
1[
0Z
0m
1e
0O!
0N!
1U!
1T!
0I!
0D!
0#!
1;
1a!
1`!
17!
0.!
1B!
0?
0K!
0]
1I!
1^!
1[!
1R!
1D!
0L!
0!!
1}
0]!
1W!
0w
1K!
1v
0H!
0h
0`
1"!
0x
1N!
1w
0K!
0T!
0I!
1L!
1X!
0^!
0Q!
1x
0N!
0U!
0L!
0a!
1^!
0[!
0R!
1I!
0D!
1Q!
#200000
0!
09
0:
