tut2/simulation/qsim/tut2.msim.vcd
$comment
	File created using the following command:
		vcd file tut2.msim.vcd -direction
$end
$date
	Tue Feb 04 22:31:33 2020
$end
$version
	ModelSim Version 10.5b
$end
$timescale
	1ps
$end

$scope module tut2_vlg_vec_tst $end
$var reg 1 ! clk $end
$var wire 1 " clk2 $end

$scope module i1 $end
$var wire 1 # gnd $end
$var wire 1 $ vcc $end
$var wire 1 % unknown $end
$var tri1 1 & devclrn $end
$var tri1 1 ' devpor $end
$var tri1 1 ( devoe $end
$var wire 1 ) ~QUARTUS_CREATED_GND~I_combout $end
$var wire 1 * clk~input_o $end
$var wire 1 + clk~inputCLKENA0_outclk $end
$var wire 1 , comb_3|countQ[24]~DUPLICATE_q $end
$var wire 1 - comb_3|Add0~6 $end
$var wire 1 . comb_3|Add0~1_sumout $end
$var wire 1 / comb_3|countQ[25]~DUPLICATE_q $end
$var wire 1 0 comb_3|countQ~0_combout $end
$var wire 1 1 comb_3|Add0~97_sumout $end
$var wire 1 2 comb_3|Add0~98 $end
$var wire 1 3 comb_3|Add0~93_sumout $end
$var wire 1 4 comb_3|Add0~94 $end
$var wire 1 5 comb_3|Add0~89_sumout $end
$var wire 1 6 comb_3|countQ[3]~DUPLICATE_q $end
$var wire 1 7 comb_3|Add0~90 $end
$var wire 1 8 comb_3|Add0~85_sumout $end
$var wire 1 9 comb_3|Add0~86 $end
$var wire 1 : comb_3|Add0~13_sumout $end
$var wire 1 ; comb_3|Add0~14 $end
$var wire 1 < comb_3|Add0~37_sumout $end
$var wire 1 = comb_3|Add0~38 $end
$var wire 1 > comb_3|Add0~33_sumout $end
$var wire 1 ? comb_3|Add0~34 $end
$var wire 1 @ comb_3|Add0~29_sumout $end
$var wire 1 A comb_3|Add0~30 $end
$var wire 1 B comb_3|Add0~25_sumout $end
$var wire 1 C comb_3|Add0~26 $end
$var wire 1 D comb_3|Add0~21_sumout $end
$var wire 1 E comb_3|countQ[11]~DUPLICATE_q $end
$var wire 1 F comb_3|Add0~22 $end
$var wire 1 G comb_3|Add0~17_sumout $end
$var wire 1 H comb_3|LessThan1~0_combout $end
$var wire 1 I comb_3|LessThan1~4_combout $end
$var wire 1 J comb_3|Add0~18 $end
$var wire 1 K comb_3|Add0~9_sumout $end
$var wire 1 L comb_3|Add0~10 $end
$var wire 1 M comb_3|Add0~81_sumout $end
$var wire 1 N comb_3|countQ[13]~DUPLICATE_q $end
$var wire 1 O comb_3|Add0~82 $end
$var wire 1 P comb_3|Add0~77_sumout $end
$var wire 1 Q comb_3|countQ[17]~DUPLICATE_q $end
$var wire 1 R comb_3|Add0~78 $end
$var wire 1 S comb_3|Add0~73_sumout $end
$var wire 1 T comb_3|countQ[15]~DUPLICATE_q $end
$var wire 1 U comb_3|Add0~74 $end
$var wire 1 V comb_3|Add0~69_sumout $end
$var wire 1 W comb_3|Add0~70 $end
$var wire 1 X comb_3|Add0~65_sumout $end
$var wire 1 Y comb_3|LessThan1~2_combout $end
$var wire 1 Z comb_3|countQ[22]~DUPLICATE_q $end
$var wire 1 [ comb_3|Add0~66 $end
$var wire 1 \ comb_3|Add0~61_sumout $end
$var wire 1 ] comb_3|Add0~62 $end
$var wire 1 ^ comb_3|Add0~57_sumout $end
$var wire 1 _ comb_3|countQ[19]~DUPLICATE_q $end
$var wire 1 ` comb_3|Add0~58 $end
$var wire 1 a comb_3|Add0~53_sumout $end
$var wire 1 b comb_3|Add0~54 $end
$var wire 1 c comb_3|Add0~49_sumout $end
$var wire 1 d comb_3|countQ[21]~DUPLICATE_q $end
$var wire 1 e comb_3|Add0~50 $end
$var wire 1 f comb_3|Add0~45_sumout $end
$var wire 1 g comb_3|Add0~41_sumout $end
$var wire 1 h comb_3|LessThan1~1_combout $end
$var wire 1 i comb_3|LessThan1~5_combout $end
$var wire 1 j comb_3|Add0~46 $end
$var wire 1 k comb_3|Add0~42 $end
$var wire 1 l comb_3|Add0~5_sumout $end
$var wire 1 m comb_3|LessThan0~0_combout $end
$var wire 1 n comb_3|LessThan1~3_combout $end
$var wire 1 o comb_3|clk_ms~0_combout $end
$var wire 1 p comb_3|clk_ms~q $end
$var wire 1 q comb_3|countQ [31] $end
$var wire 1 r comb_3|countQ [30] $end
$var wire 1 s comb_3|countQ [29] $end
$var wire 1 t comb_3|countQ [28] $end
$var wire 1 u comb_3|countQ [27] $end
$var wire 1 v comb_3|countQ [26] $end
$var wire 1 w comb_3|countQ [25] $end
$var wire 1 x comb_3|countQ [24] $end
$var wire 1 y comb_3|countQ [23] $end
$var wire 1 z comb_3|countQ [22] $end
$var wire 1 { comb_3|countQ [21] $end
$var wire 1 | comb_3|countQ [20] $end
$var wire 1 } comb_3|countQ [19] $end
$var wire 1 ~ comb_3|countQ [18] $end
$var wire 1 !! comb_3|countQ [17] $end
$var wire 1 "! comb_3|countQ [16] $end
$var wire 1 #! comb_3|countQ [15] $end
$var wire 1 $! comb_3|countQ [14] $end
$var wire 1 %! comb_3|countQ [13] $end
$var wire 1 &! comb_3|countQ [12] $end
$var wire 1 '! comb_3|countQ [11] $end
$var wire 1 (! comb_3|countQ [10] $end
$var wire 1 )! comb_3|countQ [9] $end
$var wire 1 *! comb_3|countQ [8] $end
$var wire 1 +! comb_3|countQ [7] $end
$var wire 1 ,! comb_3|countQ [6] $end
$var wire 1 -! comb_3|countQ [5] $end
$var wire 1 .! comb_3|countQ [4] $end
$var wire 1 /! comb_3|countQ [3] $end
$var wire 1 0! comb_3|countQ [2] $end
$var wire 1 1! comb_3|countQ [1] $end
$var wire 1 2! comb_3|countQ [0] $end
$upscope $end
$upscope $end
$enddefinitions $end
#0
$dumpvars
0!
0"
0#
1$
x%
1&
1'
1(
0)
0*
0+
0,
0-
0.
0/
10
01
02
03
04
05
06
07
08
09
0:
0;
0<
0=
0>
0?
0@
0A
0B
0C
0D
0E
0F
0G
1H
0I
0J
0K
0L
0M
0N
0O
0P
0Q
0R
0S
0T
0U
0V
0W
0X
1Y
0Z
0[
0\
0]
0^
0_
0`
0a
0b
0c
0d
0e
0f
0g
1h
1i
0j
0k
0l
1m
1n
1o
0p
02!
01!
00!
0/!
0.!
0-!
0,!
0+!
0*!
0)!
0(!
0'!
0&!
0%!
0$!
0#!
0"!
0!!
0~
0}
0|
0{
0z
0y
0x
0w
zv
zu
zt
zs
zr
zq
$end
#5000
1!
1*
1+
12!
1p
1"
11
00
#10000
0!
0*
0+
#15000
1!
1*
1+
11!
02!
10
#20000
0!
0*
0+
#25000
1!
1*
1+
12!
12
01
00
13
#30000
0!
0*
0+
#35000
1!
1*
1+
10!
01!
02!
02
14
10
03
04
13
15
05
#40000
0!
0*
0+
#45000
1!
1*
1+
12!
11
00
#50000
0!
0*
0+
#55000
1!
1*
1+
11!
02!
10
#60000
0!
0*
0+
#65000
1!
1*
1+
12!
12
01
00
14
03
15
#70000
0!
0*
0+
#75000
1!
1*
1+
1/!
16
00!
01!
02!
02
04
17
10
13
05
07
03
15
18
08
#80000
0!
0*
0+
#85000
1!
1*
1+
12!
11
00
#90000
0!
0*
0+
#95000
1!
1*
1+
11!
02!
0m
10
0o
#100000
0!
0*
0+
#105000
1!
1*
1+
12!
0p
0"
12
01
00
13
#110000
0!
0*
0+
#115000
1!
1*
1+
10!
01!
02!
02
14
10
03
04
17
13
05
07
15
18
08
#120000
0!
0*
0+
#125000
1!
1*
1+
12!
11
00
#130000
0!
0*
0+
#135000
1!
1*
1+
11!
02!
10
#140000
0!
0*
0+
#145000
1!
1*
1+
12!
12
01
00
14
03
17
05
18
#150000
0!
0*
0+
#155000
1!
1*
1+
0/!
1.!
06
00!
01!
02!
02
04
07
19
10
13
15
08
09
03
05
18
1:
0:
#160000
0!
0*
0+
#165000
1!
1*
1+
12!
11
00
#170000
0!
0*
0+
#175000
1!
1*
1+
11!
02!
10
#180000
0!
0*
0+
#185000
1!
1*
1+
12!
12
01
00
13
#190000
0!
0*
0+
#195000
1!
1*
1+
10!
01!
02!
02
1I
14
10
03
04
0i
13
15
05
1o
08
03
#199000
0!
0*
0+
#205000
1!
1*
1+
0.!
00!
12!
1p
1"
1m
0I
1i
11
00
#210000
0!
0*
0+
#215000
1!
1*
1+
11!
02!
10
#220000
0!
0*
0+
#225000
1!
1*
1+
12!
12
01
00
13
#230000
0!
0*
0+
#235000
1!
1*
1+
10!
01!
02!
02
14
10
03
04
13
15
05
#240000
0!
0*
0+
#245000
1!
1*
1+
12!
11
00
#250000
0!
0*
0+
#255000
1!
1*
1+
11!
02!
10
#260000
0!
0*
0+
#265000
1!
1*
1+
12!
12
01
00
14
03
15
#270000
0!
0*
0+
#275000
1!
1*
1+
1/!
16
00!
01!
02!
02
04
17
10
13
05
07
03
15
18
08
#280000
0!
0*
0+
#285000
1!
1*
1+
12!
11
00
#290000
0!
0*
0+
#295000
1!
1*
1+
11!
02!
0m
10
0o
#300000
0!
0*
0+
#305000
1!
1*
1+
12!
0p
0"
12
01
00
13
#310000
0!
0*
0+
#315000
1!
1*
1+
10!
01!
02!
02
14
10
03
04
17
13
05
07
15
18
08
#320000
0!
0*
0+
#325000
1!
1*
1+
12!
11
00
#330000
0!
0*
0+
#335000
1!
1*
1+
11!
02!
10
#340000
0!
0*
0+
#345000
1!
1*
1+
12!
12
01
00
14
03
17
05
18
#350000
0!
0*
0+
#355000
1!
1*
1+
0/!
1.!
06
00!
01!
02!
02
04
07
19
10
13
15
08
09
03
05
18
1:
0:
#360000
0!
0*
0+
#365000
1!
1*
1+
12!
11
00
#370000
0!
0*
0+
#375000
1!
1*
1+
11!
02!
10
#380000
0!
0*
0+
#385000
1!
1*
1+
12!
12
01
00
13
#390000
0!
0*
0+
#395000
1!
1*
1+
10!
01!
02!
02
1I
14
10
03
04
0i
13
15
05
1o
08
03
