tut2/simulation/qsim/tut2.msim.vcd
$comment
	File created using the following command:
		vcd file tut2.msim.vcd -direction
$end
$date
	Wed Feb 05 02:28:01 2020
$end
$version
	ModelSim Version 10.5b
$end
$timescale
	1ps
$end

$scope module tut2_vlg_vec_tst $end
$var reg 1 ! CLOCK_50 $end
$var reg 3 " KEY [2:0] $end
$var wire 1 # HEX0 [6] $end
$var wire 1 $ HEX0 [5] $end
$var wire 1 % HEX0 [4] $end
$var wire 1 & HEX0 [3] $end
$var wire 1 ' HEX0 [2] $end
$var wire 1 ( HEX0 [1] $end
$var wire 1 ) HEX0 [0] $end
$var wire 1 * HEX1 [6] $end
$var wire 1 + HEX1 [5] $end
$var wire 1 , HEX1 [4] $end
$var wire 1 - HEX1 [3] $end
$var wire 1 . HEX1 [2] $end
$var wire 1 / HEX1 [1] $end
$var wire 1 0 HEX1 [0] $end
$var wire 1 1 HEX2 [6] $end
$var wire 1 2 HEX2 [5] $end
$var wire 1 3 HEX2 [4] $end
$var wire 1 4 HEX2 [3] $end
$var wire 1 5 HEX2 [2] $end
$var wire 1 6 HEX2 [1] $end
$var wire 1 7 HEX2 [0] $end
$var wire 1 8 HEX3 [6] $end
$var wire 1 9 HEX3 [5] $end
$var wire 1 : HEX3 [4] $end
$var wire 1 ; HEX3 [3] $end
$var wire 1 < HEX3 [2] $end
$var wire 1 = HEX3 [1] $end
$var wire 1 > HEX3 [0] $end
$var wire 1 ? HEX4 [6] $end
$var wire 1 @ HEX4 [5] $end
$var wire 1 A HEX4 [4] $end
$var wire 1 B HEX4 [3] $end
$var wire 1 C HEX4 [2] $end
$var wire 1 D HEX4 [1] $end
$var wire 1 E HEX4 [0] $end
$var wire 1 F HEX5 [6] $end
$var wire 1 G HEX5 [5] $end
$var wire 1 H HEX5 [4] $end
$var wire 1 I HEX5 [3] $end
$var wire 1 J HEX5 [2] $end
$var wire 1 K HEX5 [1] $end
$var wire 1 L HEX5 [0] $end

$scope module i1 $end
$var wire 1 M gnd $end
$var wire 1 N vcc $end
$var wire 1 O unknown $end
$var tri1 1 P devclrn $end
$var tri1 1 Q devpor $end
$var tri1 1 R devoe $end
$var wire 1 S ~QUARTUS_CREATED_GND~I_combout $end
$var wire 1 T CLOCK_50~input_o $end
$var wire 1 U CLOCK_50~inputCLKENA0_outclk $end
$var wire 1 V comb_3|Add0~125_sumout $end
$var wire 1 W KEY[0]~input_o $end
$var wire 1 X comb_3|countQ[7]~DUPLICATE_q $end
$var wire 1 Y comb_3|LessThan0~1_combout $end
$var wire 1 Z comb_3|countQ[17]~DUPLICATE_q $end
$var wire 1 [ comb_3|countQ[13]~DUPLICATE_q $end
$var wire 1 \ comb_3|LessThan0~3_combout $end
$var wire 1 ] comb_3|Add0~46 $end
$var wire 1 ^ comb_3|Add0~93_sumout $end
$var wire 1 _ comb_3|Add0~94 $end
$var wire 1 ` comb_3|Add0~97_sumout $end
$var wire 1 a comb_3|Add0~98 $end
$var wire 1 b comb_3|Add0~121_sumout $end
$var wire 1 c comb_3|Add0~122 $end
$var wire 1 d comb_3|Add0~117_sumout $end
$var wire 1 e comb_3|Add0~118 $end
$var wire 1 f comb_3|Add0~113_sumout $end
$var wire 1 g comb_3|countQ[28]~DUPLICATE_q $end
$var wire 1 h comb_3|Add0~114 $end
$var wire 1 i comb_3|Add0~101_sumout $end
$var wire 1 j comb_3|Add0~102 $end
$var wire 1 k comb_3|Add0~109_sumout $end
$var wire 1 l comb_3|Add0~110 $end
$var wire 1 m comb_3|Add0~105_sumout $end
$var wire 1 n comb_3|countQ~0_combout $end
$var wire 1 o comb_3|countQ[3]~DUPLICATE_q $end
$var wire 1 p comb_3|LessThan0~0_combout $end
$var wire 1 q comb_3|countQ[26]~DUPLICATE_q $end
$var wire 1 r comb_3|countQ[2]~DUPLICATE_q $end
$var wire 1 s comb_3|countQ[1]~DUPLICATE_q $end
$var wire 1 t comb_3|countQ~1_combout $end
$var wire 1 u comb_3|countQ~2_combout $end
$var wire 1 v comb_3|Add0~126 $end
$var wire 1 w comb_3|Add0~5_sumout $end
$var wire 1 x comb_3|Add0~6 $end
$var wire 1 y comb_3|Add0~1_sumout $end
$var wire 1 z comb_3|Add0~2 $end
$var wire 1 { comb_3|Add0~17_sumout $end
$var wire 1 | comb_3|Add0~18 $end
$var wire 1 } comb_3|Add0~13_sumout $end
$var wire 1 ~ comb_3|Add0~14 $end
$var wire 1 !! comb_3|Add0~9_sumout $end
$var wire 1 "! comb_3|countQ[5]~DUPLICATE_q $end
$var wire 1 #! comb_3|Add0~10 $end
$var wire 1 $! comb_3|Add0~41_sumout $end
$var wire 1 %! comb_3|Add0~42 $end
$var wire 1 &! comb_3|Add0~37_sumout $end
$var wire 1 '! comb_3|Add0~38 $end
$var wire 1 (! comb_3|Add0~33_sumout $end
$var wire 1 )! comb_3|Add0~34 $end
$var wire 1 *! comb_3|Add0~29_sumout $end
$var wire 1 +! comb_3|Add0~30 $end
$var wire 1 ,! comb_3|Add0~25_sumout $end
$var wire 1 -! comb_3|Add0~26 $end
$var wire 1 .! comb_3|Add0~21_sumout $end
$var wire 1 /! comb_3|Add0~22 $end
$var wire 1 0! comb_3|Add0~89_sumout $end
$var wire 1 1! comb_3|Add0~90 $end
$var wire 1 2! comb_3|Add0~85_sumout $end
$var wire 1 3! comb_3|Add0~86 $end
$var wire 1 4! comb_3|Add0~81_sumout $end
$var wire 1 5! comb_3|Add0~82 $end
$var wire 1 6! comb_3|Add0~77_sumout $end
$var wire 1 7! comb_3|countQ[15]~feeder_combout $end
$var wire 1 8! comb_3|countQ[15]~DUPLICATE_q $end
$var wire 1 9! comb_3|Add0~78 $end
$var wire 1 :! comb_3|Add0~73_sumout $end
$var wire 1 ;! comb_3|Add0~74 $end
$var wire 1 <! comb_3|Add0~69_sumout $end
$var wire 1 =! comb_3|countQ[17]~feeder_combout $end
$var wire 1 >! comb_3|Add0~70 $end
$var wire 1 ?! comb_3|Add0~65_sumout $end
$var wire 1 @! comb_3|Add0~66 $end
$var wire 1 A! comb_3|Add0~61_sumout $end
$var wire 1 B! comb_3|Add0~62 $end
$var wire 1 C! comb_3|Add0~57_sumout $end
$var wire 1 D! comb_3|countQ[20]~DUPLICATE_q $end
$var wire 1 E! comb_3|Add0~58 $end
$var wire 1 F! comb_3|Add0~53_sumout $end
$var wire 1 G! comb_3|countQ[21]~DUPLICATE_q $end
$var wire 1 H! comb_3|Add0~54 $end
$var wire 1 I! comb_3|Add0~49_sumout $end
$var wire 1 J! comb_3|Add0~50 $end
$var wire 1 K! comb_3|Add0~45_sumout $end
$var wire 1 L! comb_3|LessThan0~2_combout $end
$var wire 1 M! comb_3|clk_ms~2_combout $end
$var wire 1 N! comb_3|clk_ms~1_combout $end
$var wire 1 O! comb_3|clk_ms~0_combout $end
$var wire 1 P! comb_3|clk_ms~q $end
$var wire 1 Q! comb_4|ms_count[0]~0_combout $end
$var wire 1 R! KEY[2]~input_o $end
$var wire 1 S! comb_4|state~feeder_combout $end
$var wire 1 T! KEY[1]~input_o $end
$var wire 1 U! comb_4|state~q $end
$var wire 1 V! comb_4|Add0~73_sumout $end
$var wire 1 W! comb_4|Add0~74 $end
$var wire 1 X! comb_4|Add0~69_sumout $end
$var wire 1 Y! comb_4|Add0~70 $end
$var wire 1 Z! comb_4|Add0~1_sumout $end
$var wire 1 [! comb_4|Add0~2 $end
$var wire 1 \! comb_4|Add0~5_sumout $end
$var wire 1 ]! comb_4|Add0~6 $end
$var wire 1 ^! comb_4|Add0~9_sumout $end
$var wire 1 _! comb_4|Add0~10 $end
$var wire 1 `! comb_4|Add0~13_sumout $end
$var wire 1 a! comb_4|Add0~14 $end
$var wire 1 b! comb_4|Add0~17_sumout $end
$var wire 1 c! comb_4|Add0~18 $end
$var wire 1 d! comb_4|Add0~21_sumout $end
$var wire 1 e! comb_4|Add0~22 $end
$var wire 1 f! comb_4|Add0~25_sumout $end
$var wire 1 g! comb_4|Add0~26 $end
$var wire 1 h! comb_4|Add0~29_sumout $end
$var wire 1 i! comb_4|Add0~30 $end
$var wire 1 j! comb_4|Add0~33_sumout $end
$var wire 1 k! comb_4|Add0~34 $end
$var wire 1 l! comb_4|Add0~37_sumout $end
$var wire 1 m! comb_4|Add0~38 $end
$var wire 1 n! comb_4|Add0~41_sumout $end
$var wire 1 o! comb_4|Add0~42 $end
$var wire 1 p! comb_4|Add0~45_sumout $end
$var wire 1 q! comb_4|Add0~46 $end
$var wire 1 r! comb_4|Add0~49_sumout $end
$var wire 1 s! comb_4|Add0~50 $end
$var wire 1 t! comb_4|Add0~53_sumout $end
$var wire 1 u! comb_4|Add0~54 $end
$var wire 1 v! comb_4|Add0~57_sumout $end
$var wire 1 w! comb_4|Add0~58 $end
$var wire 1 x! comb_4|Add0~65_sumout $end
$var wire 1 y! comb_4|Add0~66 $end
$var wire 1 z! comb_4|Add0~61_sumout $end
$var wire 1 {! comb_5|bcd_digit~1_combout $end
$var wire 1 |! comb_5|LessThan4~0_combout $end
$var wire 1 }! comb_5|bcd_digit~2_combout $end
$var wire 1 ~! comb_5|bcd_digit~3_combout $end
$var wire 1 !" comb_5|LessThan6~0_combout $end
$var wire 1 "" comb_5|bcd_digit~0_combout $end
$var wire 1 #" comb_5|bcd_digit~6_combout $end
$var wire 1 $" comb_5|bcd_digit~4_combout $end
$var wire 1 %" comb_5|bcd_digit~5_combout $end
$var wire 1 &" comb_5|bcd_digit~8_combout $end
$var wire 1 '" comb_5|bcd_digit~9_combout $end
$var wire 1 (" comb_5|bcd_digit~7_combout $end
$var wire 1 )" comb_5|LessThan29~0_combout $end
$var wire 1 *" comb_5|bcd_digit~10_combout $end
$var wire 1 +" comb_5|bcd_digit~11_combout $end
$var wire 1 ," comb_5|LessThan34~0_combout $end
$var wire 1 -" comb_5|bcd_digit~13_combout $end
$var wire 1 ." comb_5|bcd_digit~14_combout $end
$var wire 1 /" comb_5|bcd_digit~12_combout $end
$var wire 1 0" comb_5|bcd_digit~15_combout $end
$var wire 1 1" comb_5|LessThan39~0_combout $end
$var wire 1 2" comb_5|bcd_digit~17_combout $end
$var wire 1 3" comb_5|bcd_digit~18_combout $end
$var wire 1 4" comb_5|bcd_digit~16_combout $end
$var wire 1 5" decoder0|HEX0[0]~0_combout $end
$var wire 1 6" comb_5|bcd_digit_0[1]~0_combout $end
$var wire 1 7" comb_5|bcd_digit_0[2]~2_combout $end
$var wire 1 8" comb_5|bcd_digit_0[3]~1_combout $end
$var wire 1 9" decoder0|HEX0[1]~1_combout $end
$var wire 1 :" decoder0|WideOr4~0_combout $end
$var wire 1 ;" decoder0|WideOr3~0_combout $end
$var wire 1 <" decoder0|WideOr2~0_combout $end
$var wire 1 =" decoder0|WideOr1~0_combout $end
$var wire 1 >" decoder0|WideOr0~0_combout $end
$var wire 1 ?" comb_5|bcd_digit~46_combout $end
$var wire 1 @" comb_5|bcd_digit~20_combout $end
$var wire 1 A" comb_5|bcd_digit~26_combout $end
$var wire 1 B" comb_5|bcd_digit~29_combout $end
$var wire 1 C" comb_5|bcd_digit~31_combout $end
$var wire 1 D" comb_5|bcd_digit~30_combout $end
$var wire 1 E" comb_5|bcd_digit~27_combout $end
$var wire 1 F" comb_5|bcd_digit~28_combout $end
$var wire 1 G" comb_5|bcd_digit~32_combout $end
$var wire 1 H" comb_5|bcd_digit~25_combout $end
$var wire 1 I" comb_5|bcd_digit~23_combout $end
$var wire 1 J" comb_5|bcd_digit~33_combout $end
$var wire 1 K" comb_5|bcd_digit~34_combout $end
$var wire 1 L" comb_5|bcd_digit~24_combout $end
$var wire 1 M" comb_5|bcd_digit~35_combout $end
$var wire 1 N" comb_5|bcd_digit~22_combout $end
$var wire 1 O" comb_5|bcd_digit~21_combout $end
$var wire 1 P" comb_5|bcd_digit~37_combout $end
$var wire 1 Q" comb_5|bcd_digit~36_combout $end
$var wire 1 R" comb_5|LessThan38~0_combout $end
$var wire 1 S" comb_5|bcd_digit~38_combout $end
$var wire 1 T" comb_5|bcd_digit~19_combout $end
$var wire 1 U" comb_5|bcd_digit~40_combout $end
$var wire 1 V" comb_5|LessThan33~0_combout $end
$var wire 1 W" comb_5|bcd_digit~39_combout $end
$var wire 1 X" comb_5|LessThan43~0_combout $end
$var wire 1 Y" comb_5|bcd_digit~42_combout $end
$var wire 1 Z" comb_5|bcd_digit~43_combout $end
$var wire 1 [" comb_5|bcd_digit~41_combout $end
$var wire 1 \" comb_5|bcd_digit~44_combout $end
$var wire 1 ]" comb_5|bcd_digit~45_combout $end
$var wire 1 ^" comb_5|bcd_digit_1[0]~0_combout $end
$var wire 1 _" decoder1|HEX0[0]~0_combout $end
$var wire 1 `" comb_5|bcd_digit_1[3]~2_combout $end
$var wire 1 a" comb_5|bcd_digit_1[1]~1_combout $end
$var wire 1 b" comb_5|bcd_digit_1[2]~3_combout $end
$var wire 1 c" decoder1|HEX0[1]~1_combout $end
$var wire 1 d" decoder1|WideOr4~0_combout $end
$var wire 1 e" decoder1|WideOr3~0_combout $end
$var wire 1 f" decoder1|WideOr2~0_combout $end
$var wire 1 g" decoder1|WideOr1~0_combout $end
$var wire 1 h" decoder1|WideOr0~0_combout $end
$var wire 1 i" comb_5|bcd_digit~51_combout $end
$var wire 1 j" comb_5|bcd_digit~50_combout $end
$var wire 1 k" comb_5|bcd_digit~54_combout $end
$var wire 1 l" comb_5|bcd_digit~56_combout $end
$var wire 1 m" comb_5|bcd_digit~57_combout $end
$var wire 1 n" comb_5|bcd_digit~55_combout $end
$var wire 1 o" comb_5|bcd_digit~53_combout $end
$var wire 1 p" comb_5|bcd_digit~59_combout $end
$var wire 1 q" comb_5|bcd_digit~52_combout $end
$var wire 1 r" comb_5|bcd_digit~58_combout $end
$var wire 1 s" comb_5|bcd_digit~60_combout $end
$var wire 1 t" comb_5|bcd_digit~63_combout $end
$var wire 1 u" comb_5|bcd_digit~49_combout $end
$var wire 1 v" comb_5|bcd_digit~47_combout $end
$var wire 1 w" comb_5|bcd_digit~48_combout $end
$var wire 1 x" comb_5|bcd_digit~62_combout $end
$var wire 1 y" comb_5|bcd_digit~61_combout $end
$var wire 1 z" comb_5|bcd_digit~65_combout $end
$var wire 1 {" comb_5|bcd_digit~64_combout $end
$var wire 1 |" comb_5|bcd_digit~66_combout $end
$var wire 1 }" comb_5|bcd_digit~67_combout $end
$var wire 1 ~" comb_5|bcd_digit~68_combout $end
$var wire 1 !# comb_5|bcd_digit_2[0]~0_combout $end
$var wire 1 "# decoder2|HEX0[0]~0_combout $end
$var wire 1 ## comb_5|bcd_digit_2[1]~1_combout $end
$var wire 1 $# comb_5|bcd_digit_2[3]~2_combout $end
$var wire 1 %# comb_5|bcd_digit_2[2]~3_combout $end
$var wire 1 &# decoder2|HEX0[1]~1_combout $end
$var wire 1 '# decoder2|WideOr4~0_combout $end
$var wire 1 (# decoder2|WideOr3~0_combout $end
$var wire 1 )# decoder2|WideOr2~0_combout $end
$var wire 1 *# decoder2|WideOr1~0_combout $end
$var wire 1 +# decoder2|WideOr0~0_combout $end
$var wire 1 ,# comb_5|bcd_digit~72_combout $end
$var wire 1 -# comb_5|bcd_digit~75_combout $end
$var wire 1 .# comb_5|bcd_digit~74_combout $end
$var wire 1 /# comb_5|bcd_digit~71_combout $end
$var wire 1 0# comb_5|bcd_digit~73_combout $end
$var wire 1 1# comb_5|bcd_digit~76_combout $end
$var wire 1 2# comb_5|bcd_digit~69_combout $end
$var wire 1 3# comb_5|bcd_digit~78_combout $end
$var wire 1 4# comb_5|bcd_digit~70_combout $end
$var wire 1 5# comb_5|bcd_digit~77_combout $end
$var wire 1 6# comb_5|bcd_digit~79_combout $end
$var wire 1 7# comb_5|bcd_digit~82_combout $end
$var wire 1 8# comb_5|bcd_digit_3[0]~0_combout $end
$var wire 1 9# comb_5|bcd_digit~81_combout $end
$var wire 1 :# comb_5|bcd_digit~83_combout $end
$var wire 1 ;# comb_5|bcd_digit~80_combout $end
$var wire 1 <# decoder3|HEX0[0]~0_combout $end
$var wire 1 =# comb_5|bcd_digit_3[3]~2_combout $end
$var wire 1 ># comb_5|bcd_digit_3[2]~3_combout $end
$var wire 1 ?# comb_5|bcd_digit_3[1]~1_combout $end
$var wire 1 @# decoder3|HEX0[1]~1_combout $end
$var wire 1 A# decoder3|WideOr4~0_combout $end
$var wire 1 B# decoder3|WideOr3~0_combout $end
$var wire 1 C# decoder3|WideOr2~0_combout $end
$var wire 1 D# decoder3|WideOr1~0_combout $end
$var wire 1 E# decoder3|WideOr0~0_combout $end
$var wire 1 F# comb_5|bcd_digit_4[0]~0_combout $end
$var wire 1 G# comb_5|bcd_digit~84_combout $end
$var wire 1 H# comb_5|bcd_digit~86_combout $end
$var wire 1 I# comb_5|bcd_digit~87_combout $end
$var wire 1 J# comb_5|LessThan18~0_combout $end
$var wire 1 K# comb_5|bcd_digit~85_combout $end
$var wire 1 L# comb_5|bcd_digit~89_combout $end
$var wire 1 M# comb_5|bcd_digit~90_combout $end
$var wire 1 N# comb_5|bcd_digit~88_combout $end
$var wire 1 O# comb_5|bcd_digit~92_combout $end
$var wire 1 P# comb_5|bcd_digit~94_combout $end
$var wire 1 Q# comb_5|bcd_digit~93_combout $end
$var wire 1 R# comb_5|bcd_digit~95_combout $end
$var wire 1 S# comb_5|bcd_digit~91_combout $end
$var wire 1 T# decoder4|HEX0[0]~0_combout $end
$var wire 1 U# comb_5|bcd_digit_4[2]~3_combout $end
$var wire 1 V# comb_5|bcd_digit_4[1]~1_combout $end
$var wire 1 W# comb_5|bcd_digit_4[3]~2_combout $end
$var wire 1 X# decoder4|HEX0[1]~1_combout $end
$var wire 1 Y# decoder4|WideOr4~0_combout $end
$var wire 1 Z# decoder4|WideOr3~0_combout $end
$var wire 1 [# decoder4|WideOr2~0_combout $end
$var wire 1 \# decoder4|WideOr1~0_combout $end
$var wire 1 ]# decoder4|WideOr0~0_combout $end
$var wire 1 ^# decoder5|HEX0[0]~1_combout $end
$var wire 1 _# decoder5|HEX0[0]~2_combout $end
$var wire 1 `# decoder5|HEX0[0]~3_combout $end
$var wire 1 a# comb_5|bcd_digit_5[2]~2_combout $end
$var wire 1 b# comb_5|bcd_digit_5[1]~1_combout $end
$var wire 1 c# comb_5|bcd_digit_5[3]~3_combout $end
$var wire 1 d# comb_5|bcd_digit_5[0]~0_combout $end
$var wire 1 e# decoder5|HEX0[1]~0_combout $end
$var wire 1 f# decoder5|WideOr4~0_combout $end
$var wire 1 g# decoder5|WideOr3~0_combout $end
$var wire 1 h# decoder5|WideOr2~0_combout $end
$var wire 1 i# decoder5|WideOr1~0_combout $end
$var wire 1 j# decoder5|WideOr0~0_combout $end
$var wire 1 k# comb_3|countQ [31] $end
$var wire 1 l# comb_3|countQ [30] $end
$var wire 1 m# comb_3|countQ [29] $end
$var wire 1 n# comb_3|countQ [28] $end
$var wire 1 o# comb_3|countQ [27] $end
$var wire 1 p# comb_3|countQ [26] $end
$var wire 1 q# comb_3|countQ [25] $end
$var wire 1 r# comb_3|countQ [24] $end
$var wire 1 s# comb_3|countQ [23] $end
$var wire 1 t# comb_3|countQ [22] $end
$var wire 1 u# comb_3|countQ [21] $end
$var wire 1 v# comb_3|countQ [20] $end
$var wire 1 w# comb_3|countQ [19] $end
$var wire 1 x# comb_3|countQ [18] $end
$var wire 1 y# comb_3|countQ [17] $end
$var wire 1 z# comb_3|countQ [16] $end
$var wire 1 {# comb_3|countQ [15] $end
$var wire 1 |# comb_3|countQ [14] $end
$var wire 1 }# comb_3|countQ [13] $end
$var wire 1 ~# comb_3|countQ [12] $end
$var wire 1 !$ comb_3|countQ [11] $end
$var wire 1 "$ comb_3|countQ [10] $end
$var wire 1 #$ comb_3|countQ [9] $end
$var wire 1 $$ comb_3|countQ [8] $end
$var wire 1 %$ comb_3|countQ [7] $end
$var wire 1 &$ comb_3|countQ [6] $end
$var wire 1 '$ comb_3|countQ [5] $end
$var wire 1 ($ comb_3|countQ [4] $end
$var wire 1 )$ comb_3|countQ [3] $end
$var wire 1 *$ comb_3|countQ [2] $end
$var wire 1 +$ comb_3|countQ [1] $end
$var wire 1 ,$ comb_3|countQ [0] $end
$var wire 1 -$ comb_4|ms_count [19] $end
$var wire 1 .$ comb_4|ms_count [18] $end
$var wire 1 /$ comb_4|ms_count [17] $end
$var wire 1 0$ comb_4|ms_count [16] $end
$var wire 1 1$ comb_4|ms_count [15] $end
$var wire 1 2$ comb_4|ms_count [14] $end
$var wire 1 3$ comb_4|ms_count [13] $end
$var wire 1 4$ comb_4|ms_count [12] $end
$var wire 1 5$ comb_4|ms_count [11] $end
$var wire 1 6$ comb_4|ms_count [10] $end
$var wire 1 7$ comb_4|ms_count [9] $end
$var wire 1 8$ comb_4|ms_count [8] $end
$var wire 1 9$ comb_4|ms_count [7] $end
$var wire 1 :$ comb_4|ms_count [6] $end
$var wire 1 ;$ comb_4|ms_count [5] $end
$var wire 1 <$ comb_4|ms_count [4] $end
$var wire 1 =$ comb_4|ms_count [3] $end
$var wire 1 >$ comb_4|ms_count [2] $end
$var wire 1 ?$ comb_4|ms_count [1] $end
$var wire 1 @$ comb_4|ms_count [0] $end
$upscope $end
$upscope $end
$enddefinitions $end
#0
$dumpvars
0!
b111 "
0)
0(
0'
0&
0%
0$
1#
00
0/
0.
0-
0,
0+
1*
07
06
05
04
03
02
11
0>
0=
0<
0;
0:
09
18
0E
0D
0C
0B
0A
0@
1?
0L
0K
0J
0I
0H
0G
1F
0M
1N
xO
1P
1Q
1R
0S
0T
0U
1V
1W
0X
1Y
0Z
0[
1\
0]
0^
0_
0`
0a
0b
0c
0d
0e
0f
0g
0h
0i
0j
0k
0l
0m
1n
0o
1p
0q
0r
0s
1t
0u
0v
0w
0x
0y
0z
0{
0|
0}
0~
0!!
0"!
0#!
0$!
0%!
0&!
0'!
0(!
0)!
0*!
0+!
0,!
0-!
0.!
0/!
00!
01!
02!
03!
04!
05!
06!
07!
08!
09!
0:!
0;!
0<!
0=!
0>!
0?!
0@!
0A!
0B!
0C!
0D!
0E!
0F!
0G!
0H!
0I!
0J!
0K!
1L!
1M!
0N!
1O!
0P!
1Q!
1R!
1S!
1T!
0U!
0V!
0W!
0X!
0Y!
0Z!
0[!
0\!
0]!
0^!
0_!
0`!
0a!
0b!
0c!
0d!
0e!
0f!
0g!
0h!
0i!
0j!
0k!
0l!
0m!
0n!
0o!
0p!
0q!
0r!
0s!
0t!
0u!
0v!
0w!
0x!
0y!
0z!
0{!
0|!
0}!
0~!
1!"
1""
0#"
0$"
0%"
0&"
0'"
0("
1)"
0*"
0+"
1,"
1-"
0."
1/"
00"
11"
02"
03"
04"
05"
06"
07"
08"
09"
1:"
0;"
0<"
1="
1>"
0?"
0@"
0A"
0B"
0C"
0D"
1E"
1F"
0G"
1H"
0I"
0J"
0K"
0L"
0M"
1N"
0O"
0P"
0Q"
1R"
0S"
0T"
0U"
1V"
0W"
1X"
0Y"
0Z"
0["
0\"
0]"
0^"
0_"
0`"
0a"
0b"
0c"
1d"
0e"
0f"
1g"
1h"
0i"
0j"
0k"
1l"
0m"
0n"
0o"
0p"
1q"
0r"
0s"
0t"
1u"
0v"
0w"
0x"
0y"
0z"
0{"
0|"
1}"
0~"
0!#
0"#
0##
0$#
0%#
0&#
1'#
0(#
0)#
1*#
1+#
0,#
0-#
0.#
0/#
00#
01#
02#
03#
14#
05#
06#
07#
08#
09#
1:#
0;#
0<#
0=#
0>#
0?#
0@#
1A#
0B#
0C#
1D#
1E#
0F#
1G#
1H#
0I#
0J#
0K#
0L#
0M#
0N#
0O#
0P#
0Q#
0R#
0S#
0T#
0U#
0V#
0W#
0X#
1Y#
0Z#
0[#
1\#
1]#
0^#
0_#
0`#
0a#
0b#
0c#
0d#
0e#
1f#
0g#
0h#
1i#
1j#
0,$
0+$
0*$
0)$
0($
0'$
0&$
0%$
0$$
0#$
0"$
0!$
0~#
0}#
0|#
0{#
0z#
0y#
0x#
0w#
0v#
0u#
0t#
0s#
0r#
0q#
0p#
0o#
0n#
0m#
0l#
0k#
0@$
0?$
0>$
0=$
0<$
0;$
0:$
09$
08$
07$
06$
05$
04$
03$
02$
01$
00$
0/$
0.$
0-$
$end
#5000
1!
1T
1U
1,$
1P!
1v
0V
1w
1@$
0="
0Q!
1<"
1;"
15"
1V!
1)
1&
1%
1$
#10000
0!
0T
0U
#15000
1!
1T
1U
1+$
0,$
1s
1N!
0v
1x
1V
0w
0x
1w
1y
0O!
0y
#20000
0!
0T
0U
#25000
1!
1T
1U
1,$
0P!
1v
0V
1x
0w
1y
#30000
0!
0T
0U
#35000
1!
1T
1U
1*$
0+$
0,$
0s
1r
0v
0x
1z
1V
1w
0y
0z
0w
1y
1{
0{
#40000
b101 "
0!
0T!
0T
0U
#45000
1!
1T
1U
1,$
0t
1v
0V
1u
1w
1O!
#50000
0!
0T
0U
#55000
1!
1T
1U
0*$
0,$
0r
1P!
0N!
1t
0v
1V
0y
0u
0w
1?$
0@$
1="
1Q!
16"
0<"
0;"
05"
0)
0&
0%
0$
0="
0:"
0>"
0#
1'
1$
#60000
b111 "
0!
1T!
0T
0U
#65000
1!
1T
1U
1,$
1v
0V
1w
#70000
0!
0T
0U
#75000
1!
1T
1U
1+$
0,$
1s
1N!
0v
1x
1V
0w
0x
1w
1y
0O!
0y
#80000
0!
0T
0U
#85000
1!
1T
1U
1,$
0P!
1v
0V
1x
0w
1y
#90000
0!
0T
0U
#95000
1!
1T
1U
1*$
0+$
0,$
0s
1r
0v
0x
1z
1V
1w
0y
0z
0w
1y
1{
0{
#100000
0!
0T
0U
#105000
1!
1T
1U
1,$
0t
1v
0V
1u
1w
1O!
#110000
0!
0T
0U
#115000
1!
1T
1U
0*$
0,$
0r
1P!
0N!
1t
0v
1V
0y
0u
0w
1@$
1:"
1W!
0Q!
1<"
0V!
1%
0'
1X!
#120000
0!
0T
0U
#125000
1!
1T
1U
1,$
1v
0V
1w
#130000
0!
0T
0U
#135000
1!
1T
1U
1+$
0,$
1s
1N!
0v
1x
1V
0w
0x
1w
1y
0O!
0y
#140000
0!
0T
0U
#145000
1!
1T
1U
1,$
0P!
1v
0V
1x
0w
1y
#150000
0!
0T
0U
#155000
1!
1T
1U
1*$
0+$
0,$
0s
1r
0v
0x
1z
1V
1w
0y
0z
0w
1y
1{
0{
#160000
0!
0T
0U
#165000
1!
1T
1U
1,$
0t
1v
0V
1u
1w
1O!
#170000
0!
0T
0U
#175000
1!
1T
1U
0*$
0,$
0r
1P!
0N!
1t
0v
1V
0y
0u
0w
1>$
0?$
0@$
0:"
0W!
1Q!
17"
06"
1Y!
0<"
15"
0X!
1)
0%
1'
0Y!
1="
1:"
1X!
1Z!
1<"
1;"
1&
1%
0'
0$
0Z!
#180000
0!
0T
0U
#185000
1!
1T
1U
1,$
1v
0V
1w
#190000
0!
0T
0U
#195000
1!
1T
1U
1+$
0,$
1s
1N!
0v
1x
1V
0w
0x
1w
1y
0O!
0y
#200000
0!
0T
0U
#205000
1!
1T
1U
1,$
0P!
1v
0V
1x
0w
1y
#210000
0!
0T
0U
#215000
1!
1T
1U
1*$
0+$
0,$
0s
1r
0v
0x
1z
1V
1w
0y
0z
0w
1y
1{
0{
#220000
0!
0T
0U
#225000
1!
1T
1U
1,$
0t
1v
0V
1u
1w
1O!
#230000
0!
0T
0U
#235000
1!
1T
1U
0*$
0,$
0r
1P!
0N!
1t
0v
1V
0y
0u
0w
1@$
0Q!
0;"
19"
05"
1V!
0)
1(
0&
#240000
0!
0T
0U
#245000
1!
1T
1U
1,$
1v
0V
1w
#250000
0!
0T
0U
#255000
1!
1T
1U
1+$
0,$
1s
1N!
0v
1x
1V
0w
0x
1w
1y
0O!
0y
#260000
0!
0T
0U
#265000
1!
1T
1U
1,$
0P!
1v
0V
1x
0w
1y
#270000
0!
0T
0U
#275000
1!
1T
1U
1*$
0+$
0,$
0s
1r
0v
0x
1z
1V
1w
0y
0z
0w
1y
1{
0{
#280000
0!
0T
0U
#285000
1!
1T
1U
1,$
0t
1v
0V
1u
1w
1O!
#290000
0!
0T
0U
#295000
1!
1T
1U
0*$
0,$
0r
1P!
0N!
1t
0v
1V
0y
0u
0w
1?$
0@$
1Q!
16"
1;"
09"
0(
1&
0<"
0;"
19"
1(
0&
0%
#300000
0!
0T
0U
#305000
1!
1T
1U
1,$
1v
0V
1w
#310000
0!
0T
0U
#315000
1!
1T
1U
1+$
0,$
1s
1N!
0v
1x
1V
0w
0x
1w
1y
0O!
0y
#320000
0!
0T
0U
#325000
1!
1T
1U
1,$
0P!
1v
0V
1x
0w
1y
#330000
0!
0T
0U
#335000
1!
1T
1U
1*$
0+$
0,$
0s
1r
0v
0x
1z
1V
1w
0y
0z
0w
1y
1{
0{
#340000
0!
0T
0U
#345000
1!
1T
1U
1,$
0t
1v
0V
1u
1w
1O!
#350000
0!
0T
0U
#355000
1!
1T
1U
0*$
0,$
0r
1P!
0N!
1t
0v
1V
0y
0u
0w
1@$
0="
1W!
0Q!
1>"
1<"
1;"
09"
0V!
0(
1&
1%
1#
1$
1Y!
0X!
1Z!
#360000
0!
0T
0U
#365000
1!
1T
1U
1,$
1v
0V
1w
#370000
0!
0T
0U
#375000
1!
1T
1U
1+$
0,$
1s
1N!
0v
1x
1V
0w
0x
1w
1y
0O!
0y
#380000
0!
0T
0U
#385000
1!
1T
1U
1,$
0P!
1v
0V
1x
0w
1y
#390000
0!
0T
0U
#395000
1!
1T
1U
1*$
0+$
0,$
0s
1r
0v
0x
1z
1V
1w
0y
0z
0w
1y
1{
0{
#400000
0!
0T
0U
#405000
1!
1T
1U
1,$
0t
1v
0V
1u
1w
1O!
#410000
0!
0T
0U
